%TF.GenerationSoftware,KiCad,Pcbnew,8.0.1*%
%TF.CreationDate,2024-03-28T22:25:50+01:00*%
%TF.ProjectId,AND-gate,414e442d-6761-4746-952e-6b696361645f,rev?*%
%TF.SameCoordinates,Original*%
%TF.FileFunction,Drillmap*%
%TF.FilePolarity,Positive*%
%FSLAX45Y45*%
G04 Gerber Fmt 4.5, Leading zero omitted, Abs format (unit mm)*
G04 Created by KiCad (PCBNEW 8.0.1) date 2024-03-28 22:25:50*
%MOMM*%
%LPD*%
G01*
G04 APERTURE LIST*
%ADD10C,0.050000*%
%ADD11C,0.200000*%
G04 APERTURE END LIST*
D10*
X11280000Y-12140000D02*
G75*
G02*
X10280000Y-11140000I0J1000000D01*
G01*
X10280000Y-5927500D02*
G75*
G02*
X11280000Y-4927500I1000000J0D01*
G01*
X17507500Y-11137500D02*
G75*
G02*
X16507500Y-12137500I-1000000J0D01*
G01*
X11280000Y-4927500D02*
X16507500Y-4925000D01*
X10280000Y-5975000D02*
X10280000Y-5927500D01*
X10280000Y-11140000D02*
X10280000Y-5975000D01*
X16507500Y-12137500D02*
X11280000Y-12140000D01*
X17507500Y-5925000D02*
X17507500Y-11137500D01*
X16507500Y-4925000D02*
G75*
G02*
X17507500Y-5925000I0J-1000000D01*
G01*
D11*
X10538277Y-12453984D02*
X10538277Y-12253984D01*
X10538277Y-12253984D02*
X10585896Y-12253984D01*
X10585896Y-12253984D02*
X10614467Y-12263508D01*
X10614467Y-12263508D02*
X10633515Y-12282555D01*
X10633515Y-12282555D02*
X10643039Y-12301603D01*
X10643039Y-12301603D02*
X10652563Y-12339698D01*
X10652563Y-12339698D02*
X10652563Y-12368269D01*
X10652563Y-12368269D02*
X10643039Y-12406365D01*
X10643039Y-12406365D02*
X10633515Y-12425412D01*
X10633515Y-12425412D02*
X10614467Y-12444460D01*
X10614467Y-12444460D02*
X10585896Y-12453984D01*
X10585896Y-12453984D02*
X10538277Y-12453984D01*
X10738277Y-12453984D02*
X10738277Y-12320650D01*
X10738277Y-12358746D02*
X10747801Y-12339698D01*
X10747801Y-12339698D02*
X10757324Y-12330174D01*
X10757324Y-12330174D02*
X10776372Y-12320650D01*
X10776372Y-12320650D02*
X10795420Y-12320650D01*
X10862086Y-12453984D02*
X10862086Y-12320650D01*
X10862086Y-12253984D02*
X10852563Y-12263508D01*
X10852563Y-12263508D02*
X10862086Y-12273031D01*
X10862086Y-12273031D02*
X10871610Y-12263508D01*
X10871610Y-12263508D02*
X10862086Y-12253984D01*
X10862086Y-12253984D02*
X10862086Y-12273031D01*
X10985896Y-12453984D02*
X10966848Y-12444460D01*
X10966848Y-12444460D02*
X10957324Y-12425412D01*
X10957324Y-12425412D02*
X10957324Y-12253984D01*
X11090658Y-12453984D02*
X11071610Y-12444460D01*
X11071610Y-12444460D02*
X11062086Y-12425412D01*
X11062086Y-12425412D02*
X11062086Y-12253984D01*
X11319229Y-12453984D02*
X11319229Y-12253984D01*
X11319229Y-12253984D02*
X11385896Y-12396841D01*
X11385896Y-12396841D02*
X11452562Y-12253984D01*
X11452562Y-12253984D02*
X11452562Y-12453984D01*
X11633515Y-12453984D02*
X11633515Y-12349222D01*
X11633515Y-12349222D02*
X11623991Y-12330174D01*
X11623991Y-12330174D02*
X11604943Y-12320650D01*
X11604943Y-12320650D02*
X11566848Y-12320650D01*
X11566848Y-12320650D02*
X11547801Y-12330174D01*
X11633515Y-12444460D02*
X11614467Y-12453984D01*
X11614467Y-12453984D02*
X11566848Y-12453984D01*
X11566848Y-12453984D02*
X11547801Y-12444460D01*
X11547801Y-12444460D02*
X11538277Y-12425412D01*
X11538277Y-12425412D02*
X11538277Y-12406365D01*
X11538277Y-12406365D02*
X11547801Y-12387317D01*
X11547801Y-12387317D02*
X11566848Y-12377793D01*
X11566848Y-12377793D02*
X11614467Y-12377793D01*
X11614467Y-12377793D02*
X11633515Y-12368269D01*
X11728753Y-12320650D02*
X11728753Y-12520650D01*
X11728753Y-12330174D02*
X11747801Y-12320650D01*
X11747801Y-12320650D02*
X11785896Y-12320650D01*
X11785896Y-12320650D02*
X11804943Y-12330174D01*
X11804943Y-12330174D02*
X11814467Y-12339698D01*
X11814467Y-12339698D02*
X11823991Y-12358746D01*
X11823991Y-12358746D02*
X11823991Y-12415888D01*
X11823991Y-12415888D02*
X11814467Y-12434936D01*
X11814467Y-12434936D02*
X11804943Y-12444460D01*
X11804943Y-12444460D02*
X11785896Y-12453984D01*
X11785896Y-12453984D02*
X11747801Y-12453984D01*
X11747801Y-12453984D02*
X11728753Y-12444460D01*
X11909705Y-12434936D02*
X11919229Y-12444460D01*
X11919229Y-12444460D02*
X11909705Y-12453984D01*
X11909705Y-12453984D02*
X11900182Y-12444460D01*
X11900182Y-12444460D02*
X11909705Y-12434936D01*
X11909705Y-12434936D02*
X11909705Y-12453984D01*
X11909705Y-12330174D02*
X11919229Y-12339698D01*
X11919229Y-12339698D02*
X11909705Y-12349222D01*
X11909705Y-12349222D02*
X11900182Y-12339698D01*
X11900182Y-12339698D02*
X11909705Y-12330174D01*
X11909705Y-12330174D02*
X11909705Y-12349222D01*
M02*
