<?xml version="1.0" encoding="utf-8"?>
<!--/12902637/347625/2.50/9/0/Resistor Network/-->
<!DOCTYPE curve SYSTEM "eagle.dtd">
<eagle version="7.7.0">
<drawing>
<settings>
<setting alwaysvectorfont="no"/>
<setting verticaltext="up"/>
</settings>
<grid distance="0.1" unitdist="inch" unit="inch" style="lines" multiple="1" display="no" altdistance="0.01" altunitdist="inch" altunit="inch"/>
<layers>
<layer number="1" name="Top" color="4" fill="1" visible="yes" active="yes"/>
<layer number="16" name="Bottom" color="1" fill="1" visible="yes" active="yes"/>
<layer number="17" name="Pads" color="2" fill="1" visible="yes" active="yes"/>
<layer number="18" name="Vias" color="2" fill="1" visible="yes" active="yes"/>
<layer number="19" name="Unrouted" color="6" fill="1" visible="yes" active="yes"/>
<layer number="20" name="Dimension" color="15" fill="1" visible="yes" active="yes"/>
<layer number="21" name="tPlace" color="7" fill="1" visible="yes" active="yes"/>
<layer number="22" name="bPlace" color="7" fill="1" visible="yes" active="yes"/>
<layer number="23" name="tOrigins" color="15" fill="1" visible="yes" active="yes"/>
<layer number="24" name="bOrigins" color="15" fill="1" visible="yes" active="yes"/>
<layer number="25" name="tNames" color="7" fill="1" visible="yes" active="yes"/>
<layer number="26" name="bNames" color="7" fill="1" visible="yes" active="yes"/>
<layer number="27" name="tValues" color="7" fill="1" visible="yes" active="yes"/>
<layer number="28" name="bValues" color="7" fill="1" visible="yes" active="yes"/>
<layer number="29" name="tStop" color="7" fill="3" visible="no" active="yes"/>
<layer number="30" name="bStop" color="7" fill="6" visible="no" active="yes"/>
<layer number="31" name="tCream" color="7" fill="4" visible="no" active="yes"/>
<layer number="32" name="bCream" color="7" fill="5" visible="no" active="yes"/>
<layer number="33" name="tFinish" color="6" fill="3" visible="no" active="yes"/>
<layer number="34" name="bFinish" color="6" fill="6" visible="no" active="yes"/>
<layer number="35" name="tGlue" color="7" fill="4" visible="no" active="yes"/>
<layer number="36" name="bGlue" color="7" fill="5" visible="no" active="yes"/>
<layer number="37" name="tTest" color="7" fill="1" visible="no" active="yes"/>
<layer number="38" name="bTest" color="7" fill="1" visible="no" active="yes"/>
<layer number="39" name="tKeepout" color="4" fill="11" visible="yes" active="yes"/>
<layer number="40" name="bKeepout" color="1" fill="11" visible="yes" active="yes"/>
<layer number="41" name="tRestrict" color="4" fill="10" visible="yes" active="yes"/>
<layer number="42" name="bRestrict" color="1" fill="10" visible="yes" active="yes"/>
<layer number="43" name="vRestrict" color="2" fill="10" visible="yes" active="yes"/>
<layer number="44" name="Drills" color="7" fill="1" visible="no" active="yes"/>
<layer number="45" name="Holes" color="7" fill="1" visible="no" active="yes"/>
<layer number="46" name="Milling" color="3" fill="1" visible="no" active="yes"/>
<layer number="47" name="Measures" color="7" fill="1" visible="no" active="yes"/>
<layer number="48" name="Document" color="7" fill="1" visible="yes" active="yes"/>
<layer number="49" name="Reference" color="7" fill="1" visible="yes" active="yes"/>
<layer number="51" name="tDocu" color="7" fill="1" visible="yes" active="yes"/>
<layer number="52" name="bDocu" color="7" fill="1" visible="yes" active="yes"/>
<layer number="90" name="Modules" color="5" fill="1" visible="yes" active="yes"/>
<layer number="91" name="Nets" color="2" fill="1" visible="yes" active="yes"/>
<layer number="92" name="Busses" color="1" fill="1" visible="yes" active="yes"/>
<layer number="93" name="Pins" color="2" fill="1" visible="no" active="yes"/>
<layer number="94" name="Symbols" color="4" fill="1" visible="yes" active="yes"/>
<layer number="95" name="Names" color="7" fill="1" visible="yes" active="yes"/>
<layer number="96" name="Values" color="7" fill="1" visible="yes" active="yes"/>
<layer number="97" name="Info" color="7" fill="1" visible="yes" active="yes"/>
<layer number="98" name="Guide" color="6" fill="1" visible="yes" active="yes"/>
</layers>
<library>
<description>&lt;Resistor Networks &amp; Arrays 9pins 1Kohms Bussed&lt;/b&gt;&lt;p&gt;
&lt;author&gt;Created by SamacSys&lt;/author&gt;</description>
<packages>
<package name="4609X101102LF">
<description>&lt;b&gt;4609X-101-102LF-1&lt;/b&gt;&lt;br&gt;
</description>
<pad name="1" x="0.000" y="0.000" drill="0.758" diameter="1.365"/>
<pad name="2" x="2.540" y="0.000" drill="0.758" diameter="1.365"/>
<pad name="3" x="5.080" y="0.000" drill="0.758" diameter="1.365"/>
<pad name="4" x="7.620" y="0.000" drill="0.758" diameter="1.365"/>
<pad name="5" x="10.160" y="0.000" drill="0.758" diameter="1.365"/>
<pad name="6" x="12.700" y="0.000" drill="0.758" diameter="1.365"/>
<pad name="7" x="15.240" y="0.000" drill="0.758" diameter="1.365"/>
<pad name="8" x="17.780" y="0.000" drill="0.758" diameter="1.365"/>
<pad name="9" x="20.320" y="0.000" drill="0.758" diameter="1.365"/>
<text x="9.783" y="0.000" align="center" size="1.27" layer="25" rot="R0" >&gt;NAME</text>
<text x="9.783" y="0.000" align="center" size="1.27" layer="27" rot="R0" >&gt;VALUE</text>
<wire x1="-1.245" y1="1.245" x2="21.565" y2="1.245" width="0.2" layer="51"/>
<wire x1="21.565" y1="1.245" x2="21.565" y2="-1.245" width="0.2" layer="51"/>
<wire x1="21.565" y1="-1.245" x2="-1.245" y2="-1.245" width="0.2" layer="51"/>
<wire x1="-1.245" y1="-1.245" x2="-1.245" y2="1.245" width="0.2" layer="51"/>
<wire x1="-1.245" y1="1.245" x2="21.565" y2="1.245" width="0.1" layer="21"/>
<wire x1="21.565" y1="1.245" x2="21.565" y2="-1.245" width="0.1" layer="21"/>
<wire x1="21.565" y1="-1.245" x2="-1.245" y2="-1.245" width="0.1" layer="21"/>
<wire x1="-1.245" y1="-1.245" x2="-1.245" y2="1.245" width="0.1" layer="21"/>
<wire x1="-3" y1="2.245" x2="22.565" y2="2.245" width="0.1" layer="51"/>
<wire x1="22.565" y1="2.245" x2="22.565" y2="-2.245" width="0.1" layer="51"/>
<wire x1="22.565" y1="-2.245" x2="-3" y2="-2.245" width="0.1" layer="51"/>
<wire x1="-3" y1="-2.245" x2="-3" y2="2.245" width="0.1" layer="51"/>
<wire x1="-2" y1="0" x2="-2" y2="0" width="0.2" layer="21"/>
<wire x1="-2.000" y1="0.000" x2="-1.800" y2="0.000" width="0.2" layer="21" curve="180.0"/>
<wire x1="-1.8" y1="0" x2="-1.8" y2="0" width="0.2" layer="21"/>
<wire x1="-1.800" y1="0.000" x2="-2.000" y2="0.000" width="0.2" layer="21" curve="180.0"/>
</package>
</packages>
<symbols>
<symbol name="4609X-101-102LF">
<wire x1="5.08" y1="2.54" x2="15.24" y2="2.54" width="0.254" layer="94"/>
<wire x1="15.24" y1="-22.86" x2="15.24" y2="2.54" width="0.254" layer="94"/>
<wire x1="15.24" y1="-22.86" x2="5.08" y2="-22.86" width="0.254" layer="94"/>
<wire x1="5.08" y1="2.54" x2="5.08" y2="-22.86" width="0.254" layer="94"/>
<text x="16.51" y="7.62" align="center-left" size="1.778" layer="95">&gt;NAME</text>
<text x="16.51" y="5.08" align="center-left" size="1.778" layer="96">&gt;VALUE</text>
<pin name="1" x="0" y="0" length="middle" direction="io" rot="R0"/>
<pin name="2" x="0" y="-2.54" length="middle" direction="io" rot="R0"/>
<pin name="3" x="0" y="-5.08" length="middle" direction="io" rot="R0"/>
<pin name="4" x="0" y="-7.62" length="middle" direction="io" rot="R0"/>
<pin name="5" x="0" y="-10.16" length="middle" direction="io" rot="R0"/>
<pin name="6" x="0" y="-12.7" length="middle" direction="io" rot="R0"/>
<pin name="7" x="0" y="-15.24" length="middle" direction="io" rot="R0"/>
<pin name="8" x="0" y="-17.78" length="middle" direction="io" rot="R0"/>
<pin name="9" x="0" y="-20.32" length="middle" direction="io" rot="R0"/>
</symbol>
</symbols>
<devicesets>
<deviceset name="4609X-101-102LF" prefix="RN">
<description>&lt;b&gt;Resistor Networks &amp; Arrays 9pins 1Kohms Bussed&lt;/b&gt;&lt;p&gt;
Source: &lt;a href=""&gt; Datasheet &lt;/a&gt;</description>
<gates>
<gate name="G$1" symbol="4609X-101-102LF" x="0" y="0"/>
</gates>
<devices>
<device name="" package="4609X101102LF">
<connects>
<connect gate="G$1" pin="1" pad="1"/>
<connect gate="G$1" pin="2" pad="2"/>
<connect gate="G$1" pin="3" pad="3"/>
<connect gate="G$1" pin="4" pad="4"/>
<connect gate="G$1" pin="5" pad="5"/>
<connect gate="G$1" pin="6" pad="6"/>
<connect gate="G$1" pin="7" pad="7"/>
<connect gate="G$1" pin="8" pad="8"/>
<connect gate="G$1" pin="9" pad="9"/>
</connects>
<technologies>
<technology name="">
<attribute name="TME_Electronic_Components_Part_Number" value="" constant="no"/>
<attribute name="TME_Electronic_Components_Price-Stock" value="" constant="no"/>
<attribute name="Manufacturer_Name" value="Bourns" constant="no"/>
<attribute name="Manufacturer_Part_Number" value="4609X-101-102LF" constant="no"/>
<attribute name="Description" value="Resistor Networks &amp; Arrays 9pins 1Kohms Bussed" constant="no"/>
<attribute name="Height" value="5.08mm" constant="no"/>
</technology>
</technologies>
</device>
</devices>
</deviceset>
</devicesets>
</library>
</drawing>
</eagle>
