(footprint "af_napis_35mm"
	(version 20240108)
	(generator "pcbnew")
	(generator_version "8.0")
	(layer "F.Cu")
	(property "Reference" "G***"
		(at 0 0 0)
		(layer "F.SilkS")
		(uuid "faefd02d-f25e-48ba-9e3e-50e3b89150a7")
		(effects
			(font
				(size 1.5 1.5)
				(thickness 0.3)
			)
		)
	)
	(property "Value" "LOGO"
		(at 0.75 0 0)
		(layer "F.SilkS")
		(hide yes)
		(uuid "b5d7b86e-9a43-4568-adcd-3a92d38e7a83")
		(effects
			(font
				(size 1.5 1.5)
				(thickness 0.3)
			)
		)
	)
	(property "Footprint" "af_napis_35mm"
		(at 0 0 0)
		(unlocked yes)
		(layer "F.Fab")
		(hide yes)
		(uuid "bfb704e0-c3b5-4d0d-98d9-b75d0ab59e31")
		(effects
			(font
				(size 1.27 1.27)
			)
		)
	)
	(property "Datasheet" ""
		(at 0 0 0)
		(unlocked yes)
		(layer "F.Fab")
		(hide yes)
		(uuid "b542b549-c12a-461e-9f36-3f23da631bf1")
		(effects
			(font
				(size 1.27 1.27)
			)
		)
	)
	(property "Description" ""
		(at 0 0 0)
		(unlocked yes)
		(layer "F.Fab")
		(hide yes)
		(uuid "5bc5656f-4476-4413-9fac-aa297fdc8385")
		(effects
			(font
				(size 1.27 1.27)
			)
		)
	)
	(attr board_only exclude_from_pos_files exclude_from_bom)
	(fp_poly
		(pts
			(xy -7.256416 -2.85021) (xy -7.154043 -2.836837) (xy -7.081999 -2.816273) (xy -7.068976 -2.809203)
			(xy -7.010951 -2.756987) (xy -6.971133 -2.684298) (xy -6.947187 -2.583589) (xy -6.936778 -2.447313)
			(xy -6.935881 -2.379031) (xy -6.941501 -2.218442) (xy -6.962166 -2.098343) (xy -7.003584 -2.012813)
			(xy -7.071465 -1.955927) (xy -7.171516 -1.921762) (xy -7.309445 -1.904395) (xy -7.397484 -1.900054)
			(xy -7.515375 -1.897785) (xy -7.599473 -1.901364) (xy -7.663133 -1.912349) (xy -7.719711 -1.9323)
			(xy -7.7357 -1.939517) (xy -7.807726 -1.983726) (xy -7.858078 -2.043248) (xy -7.889917 -2.126022)
			(xy -7.906405 -2.239988) (xy -7.910735 -2.379031) (xy -7.903878 -2.536374) (xy -7.88189 -2.654852)
			(xy -7.842645 -2.741119) (xy -7.784016 -2.801833) (xy -7.773335 -2.809203) (xy -7.712124 -2.831787)
			(xy -7.616973 -2.84718) (xy -7.500735 -2.855381) (xy -7.376265 -2.856392)
		)
		(stroke
			(width 0)
			(type solid)
		)
		(fill solid)
		(layer "F.SilkS")
		(uuid "da5cef43-2ade-4d6c-90fc-de767fa64c99")
	)
	(fp_poly
		(pts
			(xy -7.20274 -1.158067) (xy -7.134465 -1.154753) (xy -7.088519 -1.147356) (xy -7.056574 -1.135078)
			(xy -7.030302 -1.117121) (xy -7.029291 -1.116305) (xy -6.971389 -1.069417) (xy -6.971389 0.840358)
			(xy -6.971389 2.750133) (xy -7.027273 2.795383) (xy -7.055076 2.813711) (xy -7.091122 2.826371) (xy -7.144017 2.834375)
			(xy -7.222367 2.838731) (xy -7.334776 2.840448) (xy -7.413018 2.840634) (xy -7.544433 2.840264) (xy -7.637184 2.838289)
			(xy -7.69995 2.833409) (xy -7.741408 2.824324) (xy -7.770238 2.809733) (xy -7.795118 2.788339) (xy -7.800983 2.78253)
			(xy -7.859087 2.724426) (xy -7.859087 0.834119) (xy -7.858982 0.483364) (xy -7.858633 0.17701) (xy -7.857988 -0.087885)
			(xy -7.856998 -0.314262) (xy -7.855611 -0.505065) (xy -7.853776 -0.663236) (xy -7.851442 -0.791715)
			(xy -7.848558 -0.893447) (xy -7.845073 -0.971373) (xy -7.840936 -1.028435) (xy -7.836096 -1.067575)
			(xy -7.830503 -1.091736) (xy -7.825537 -1.102139) (xy -7.808218 -1.120147) (xy -7.781616 -1.133108)
			(xy -7.738007 -1.142092) (xy -7.669667 -1.14817) (xy -7.568873 -1.152412) (xy -7.43959 -1.155641)
			(xy -7.301672 -1.158097)
		)
		(stroke
			(width 0)
			(type solid)
		)
		(fill solid)
		(layer "F.SilkS")
		(uuid "3e3e3bf0-2aa2-424d-9e50-71963c471556")
	)
	(fp_poly
		(pts
			(xy -9.840733 -1.251768) (xy -9.626082 -1.21615) (xy -9.374326 -1.138346) (xy -9.153887 -1.025151)
			(xy -8.965526 -0.877294) (xy -8.810004 -0.695505) (xy -8.688084 -0.480511) (xy -8.600949 -0.234632)
			(xy -8.592305 -0.197902) (xy -8.584884 -0.154704) (xy -8.578561 -0.101142) (xy -8.573213 -0.033319)
			(xy -8.568718 0.052664) (xy -8.564951 0.160704) (xy -8.56179 0.294698) (xy -8.559111 0.458543) (xy -8.556791 0.656137)
			(xy -8.554707 0.891377) (xy -8.552735 1.168161) (xy -8.551775 1.319576) (xy -8.543151 2.722004) (xy -8.602466 2.781319)
			(xy -8.627961 2.804868) (xy -8.655028 2.821184) (xy -8.692366 2.831591) (xy -8.748672 2.837416) (xy -8.832644 2.839984)
			(xy -8.95298 2.840621) (xy -8.991642 2.840634) (xy -9.126126 2.839924) (xy -9.221884 2.837123) (xy -9.287521 2.83122)
			(xy -9.331641 2.821207) (xy -9.362849 2.806076) (xy -9.377387 2.795401) (xy -9.433271 2.750168) (xy -9.445107 1.404674)
			(xy -9.456943 0.05918) (xy -9.523878 -0.07713) (xy -9.589577 -0.186589) (xy -9.671936 -0.272339)
			(xy -9.782914 -0.345274) (xy -9.86067 -0.383959) (xy -9.910853 -0.405158) (xy -9.960473 -0.419949)
			(xy -10.019297 -0.429431) (xy -10.097091 -0.4347) (xy -10.203621 -0.436855) (xy -10.332805 -0.437038)
			(xy -10.523646 -0.432223) (xy -10.697408 -0.419438) (xy -10.847266 -0.39968) (xy -10.9664 -0.373949)
			(xy -11.047985 -0.343242) (xy -11.069251 -0.329237) (xy -11.076032 -0.317198) (xy -11.081848 -0.291025)
			(xy -11.086768 -0.247494) (xy -11.090861 -0.183383) (xy -11.094196 -0.095465) (xy -11.096841 0.019481)
			(xy -11.098865 0.164681) (xy -11.100337 0.343357) (xy -11.101327 0.558735) (xy -11.101902 0.814038)
			(xy -11.102132 1.11249) (xy -11.102144 1.211244) (xy -11.102144 2.724426) (xy -11.160247 2.78253)
			(xy -11.185428 2.805613) (xy -11.212631 2.821603) (xy -11.250533 2.831799) (xy -11.307814 2.837502)
			(xy -11.393152 2.84001) (xy -11.515226 2.840624) (xy -11.548212 2.840634) (xy -11.682691 2.839925)
			(xy -11.778443 2.837124) (xy -11.844074 2.831223) (xy -11.88819 2.821212) (xy -11.919395 2.806082)
			(xy -11.933957 2.795388) (xy -11.989842 2.750142) (xy -11.996219 1.041981) (xy -11.997305 0.652326)
			(xy -11.997477 0.309995) (xy -11.996734 0.014976) (xy -11.995078 -0.232744) (xy -11.992507 -0.433175)
			(xy -11.989021 -0.58633) (xy -11.984621 -0.692219) (xy -11.979305 -0.750856) (xy -11.977725 -0.758545)
			(xy -11.946639 -0.830791) (xy -11.891536 -0.893698) (xy -11.80634 -0.951631) (xy -11.684977 -1.008957)
			(xy -11.566094 -1.054348) (xy -11.298409 -1.135918) (xy -11.008419 -1.199219) (xy -10.70689 -1.243352)
			(xy -10.404588 -1.26742) (xy -10.11228 -1.270524)
		)
		(stroke
			(width 0)
			(type solid)
		)
		(fill solid)
		(layer "F.SilkS")
		(uuid "e0c220bd-4043-4eab-b23c-708090fcee40")
	)
	(fp_poly
		(pts
			(xy 6.430528 -2.919138) (xy 6.492306 -2.894925) (xy 6.532732 -2.85552) (xy 6.558071 -2.79946) (xy 6.558692 -2.797408)
			(xy 6.569941 -2.731995) (xy 6.576762 -2.633128) (xy 6.578413 -2.514555) (xy 6.577178 -2.455499) (xy 6.571587 -2.326314)
			(xy 6.559756 -2.234544) (xy 6.534444 -2.172916) (xy 6.488411 -2.134156) (xy 6.414419 -2.110992) (xy 6.305228 -2.096149)
			(xy 6.210811 -2.087418) (xy 6.008593 -2.060292) (xy 5.846178 -2.016564) (xy 5.718098 -1.953481) (xy 5.618883 -1.868289)
			(xy 5.543062 -1.758233) (xy 5.538045 -1.748665) (xy 5.505043 -1.66161) (xy 5.476381 -1.544353) (xy 5.455335 -1.414025)
			(xy 5.445179 -1.287757) (xy 5.444727 -1.260531) (xy 5.444548 -1.159925) (xy 5.954571 -1.159925) (xy 6.122309 -1.159813)
			(xy 6.249262 -1.159029) (xy 6.341992 -1.156903) (xy 6.407057 -1.152762) (xy 6.451018 -1.145938) (xy 6.480433 -1.135758)
			(xy 6.501864 -1.121552) (xy 6.52187 -1.102649) (xy 6.522698 -1.101822) (xy 6.54695 -1.075066) (xy 6.563311 -1.04597)
			(xy 6.573329 -1.005147) (xy 6.578551 -0.943211) (xy 6.580523 -0.850776) (xy 6.580801 -0.749365) (xy 6.581258 -0.626483)
			(xy 6.579073 -0.531249) (xy 6.568916 -0.460067) (xy 6.545453 -0.409339) (xy 6.503352 -0.375471) (xy 6.437283 -0.354865)
			(xy 6.341912 -0.343924) (xy 6.211909 -0.339054) (xy 6.04194 -0.336656) (xy 5.96746 -0.33567) (xy 5.444548 -0.328097)
			(xy 5.444548 1.198165) (xy 5.444548 2.724426) (xy 5.386444 2.78253) (xy 5.361263 2.805613) (xy 5.334061 2.821603)
			(xy 5.296158 2.831799) (xy 5.238878 2.837502) (xy 5.153539 2.84001) (xy 5.031465 2.840624) (xy 4.998479 2.840634)
			(xy 4.863999 2.839924) (xy 4.768246 2.837124) (xy 4.702613 2.831222) (xy 4.658496 2.821211) (xy 4.62729 2.806081)
			(xy 4.612734 2.795391) (xy 4.55685 2.750149) (xy 4.550268 1.209371) (xy 4.543687 -0.331407) (xy 4.287491 -0.331407)
			(xy 4.17375 -0.333784) (xy 4.070311 -0.340197) (xy 3.990901 -0.349572) (xy 3.957034 -0.357295) (xy 3.906766 -0.385816)
			(xy 3.871236 -0.434903) (xy 3.848856 -0.510667) (xy 3.83804 -0.619223) (xy 3.837201 -0.766685) (xy 3.838479 -0.813966)
			(xy 3.843815 -0.940291) (xy 3.855008 -1.03138) (xy 3.878897 -1.092994) (xy 3.922321 -1.130894) (xy 3.99212 -1.150842)
			(xy 4.095133 -1.158598) (xy 4.238199 -1.159925) (xy 4.249184 -1.159925) (xy 4.539907 -1.159925) (xy 4.556338 -1.402563)
			(xy 4.584759 -1.671322) (xy 4.632372 -1.90218) (xy 4.701577 -2.101501) (xy 4.79478 -2.275651) (xy 4.914382 -2.430995)
			(xy 4.964431 -2.483609) (xy 5.112066 -2.612917) (xy 5.272962 -2.716271) (xy 5.454213 -2.796481) (xy 5.662912 -2.856355)
			(xy 5.906152 -2.898702) (xy 6.05442 -2.915277) (xy 6.21785 -2.92785) (xy 6.341131 -2.929625)
		)
		(stroke
			(width 0)
			(type solid)
		)
		(fill solid)
		(layer "F.SilkS")
		(uuid "710ce586-cb41-4b9f-a0b4-94a8a640e21c")
	)
	(fp_poly
		(pts
			(xy 16.177756 -2.127777) (xy 16.256132 -2.115804) (xy 16.309819 -2.089102) (xy 16.343669 -2.041939)
			(xy 16.362537 -1.968579) (xy 16.371276 -1.86329) (xy 16.374738 -1.720336) (xy 16.376534 -1.599996)
			(xy 16.383916 -1.159925) (xy 16.888776 -1.159925) (xy 17.074882 -1.159991) (xy 17.219099 -1.158179)
			(xy 17.32687 -1.151477) (xy 17.403634 -1.136871) (xy 17.454835 -1.11135) (xy 17.485912 -1.071899)
			(xy 17.502309 -1.015507) (xy 17.509467 -0.939161) (xy 17.512827 -0.839846) (xy 17.513617 -0.813966)
			(xy 17.5152 -0.654951) (xy 17.507234 -0.536492) (xy 17.488134 -0.452476) (xy 17.456311 -0.396789)
			(xy 17.410179 -0.363317) (xy 17.395063 -0.357295) (xy 17.344588 -0.348261) (xy 17.253504 -0.340845)
			(xy 17.128527 -0.335368) (xy 16.976376 -0.332148) (xy 16.850894 -0.331407) (xy 16.380988 -0.331407)
			(xy 16.381338 0.562209) (xy 16.381792 0.806883) (xy 16.38306 1.009143) (xy 16.385314 1.173912) (xy 16.388723 1.306114)
			(xy 16.393461 1.410676) (xy 16.399699 1.492521) (xy 16.407608 1.556573) (xy 16.417359 1.607757) (xy 16.41781 1.609692)
			(xy 16.461056 1.75068) (xy 16.520634 1.86156) (xy 16.602091 1.946106) (xy 16.71097 2.008092) (xy 16.852817 2.051291)
			(xy 17.033175 2.079477) (xy 17.12004 2.08761) (xy 17.260202 2.099365) (xy 17.361467 2.113468) (xy 17.430151 2.137025)
			(xy 17.472572 2.177143) (xy 17.495047 2.240929) (xy 17.503892 2.33549) (xy 17.505427 2.467931) (xy 17.505405 2.521128)
			(xy 17.504924 2.650399) (xy 17.502628 2.741138) (xy 17.497241 2.802156) (xy 17.487488 2.842261) (xy 17.472092 2.870264)
			(xy 17.451495 2.893262) (xy 17.41775 2.920787) (xy 17.375878 2.937592) (xy 17.313328 2.946594) (xy 17.217549 2.950711)
			(xy 17.20294 2.95102) (xy 17.076727 2.950104) (xy 16.936591 2.943938) (xy 16.818919 2.934431) (xy 16.53564 2.890889)
			(xy 16.292359 2.824366) (xy 16.086445 2.732471) (xy 15.915266 2.612817) (xy 15.776187 2.463012) (xy 15.666578 2.280669)
			(xy 15.583805 2.063397) (xy 15.525237 1.808806) (xy 15.515971 1.751724) (xy 15.506147 1.672287) (xy 15.498185 1.572835)
			(xy 15.49195 1.448867) (xy 15.487307 1.295883) (xy 15.484124 1.109381) (xy 15.482266 0.884859) (xy 15.481599 0.617817)
			(xy 15.481593 0.597717) (xy 15.481454 -0.331407) (xy 15.189087 -0.331407) (xy 15.068736 -0.333483)
			(xy 14.959125 -0.33913) (xy 14.872588 -0.347477) (xy 14.822458 -0.357295) (xy 14.77219 -0.385816)
			(xy 14.73666 -0.434903) (xy 14.71428 -0.510667) (xy 14.703465 -0.619223) (xy 14.702625 -0.766685)
			(xy 14.703903 -0.813966) (xy 14.708723 -0.935445) (xy 14.718571 -1.02453) (xy 14.739962 -1.086242)
			(xy 14.779415 -1.125607) (xy 14.843445 -1.147648) (xy 14.938569 -1.157389) (xy 15.071303 -1.159852)
			(xy 15.152669 -1.159925) (xy 15.481454 -1.159925) (xy 15.481454 -1.587096) (xy 15.48164 -1.738979)
			(xy 15.482784 -1.850844) (xy 15.485763 -1.930018) (xy 15.491454 -1.983829) (xy 15.500735 -2.019603)
			(xy 15.514482 -2.044667) (xy 15.533573 -2.066347) (xy 15.539558 -2.072371) (xy 15.564739 -2.095455)
			(xy 15.591941 -2.111445) (xy 15.629843 -2.121641) (xy 15.687124 -2.127343) (xy 15.772462 -2.129851)
			(xy 15.894536 -2.130465) (xy 15.927522 -2.130475) (xy 16.069837 -2.130756)
		)
		(stroke
			(width 0)
			(type solid)
		)
		(fill solid)
		(layer "F.SilkS")
		(uuid "be4cbddd-e2ff-4d7a-abf3-db2e1c291b61")
	)
	(fp_poly
		(pts
			(xy 1.895087 -1.259724) (xy 2.04919 -1.251575) (xy 2.177151 -1.236765) (xy 2.260671 -1.221174) (xy 2.538973 -1.139533)
			(xy 2.785386 -1.024338) (xy 2.998679 -0.876729) (xy 3.177622 -0.697846) (xy 3.320986 -0.488829) (xy 3.42754 -0.250819)
			(xy 3.472568 -0.097567) (xy 3.489478 -0.00644) (xy 3.501493 0.11063) (xy 3.509076 0.260353) (xy 3.512694 0.449441)
			(xy 3.512948 0.486105) (xy 3.513301 0.641572) (xy 3.512001 0.757159) (xy 3.508428 0.84032) (xy 3.501965 0.89851)
			(xy 3.491993 0.939182) (xy 3.477893 0.96979) (xy 3.472017 0.979276) (xy 3.452826 1.007563) (xy 3.432609 1.031535)
			(xy 3.407513 1.05155) (xy 3.373686 1.067965) (xy 3.327277 1.081137) (xy 3.264432 1.091421) (xy 3.181299 1.099177)
			(xy 3.074027 1.10476) (xy 2.938762 1.108527) (xy 2.771652 1.110836) (xy 2.568845 1.112043) (xy 2.32649 1.112506)
			(xy 2.040732 1.112582) (xy 2.033507 1.112582) (xy 0.798765 1.112582) (xy 0.809553 1.367055) (xy 0.818101 1.503958)
			(xy 0.831814 1.606779) (xy 0.852932 1.688691) (xy 0.872986 1.739888) (xy 0.964364 1.892286) (xy 1.088625 2.011875)
			(xy 1.246334 2.098945) (xy 1.438054 2.153787) (xy 1.66435 2.176691) (xy 1.723299 2.177469) (xy 1.952222 2.162523)
			(xy 2.150496 2.116468) (xy 2.32575 2.03606) (xy 2.48561 1.918053) (xy 2.597716 1.805469) (xy 2.670578 1.729127)
			(xy 2.738664 1.66666) (xy 2.791943 1.62688) (xy 2.811278 1.617869) (xy 2.859231 1.622301) (xy 2.936428 1.64706)
			(xy 3.032269 1.686911) (xy 3.13615 1.736614) (xy 3.237469 1.790934) (xy 3.325623 1.844632) (xy 3.39001 1.892472)
			(xy 3.411385 1.914305) (xy 3.445439 1.982602) (xy 3.444994 2.062074) (xy 3.408943 2.158842) (xy 3.348678 2.260469)
			(xy 3.198973 2.444408) (xy 3.012037 2.604296) (xy 2.793418 2.736364) (xy 2.548663 2.836845) (xy 2.461883 2.862762)
			(xy 2.216916 2.91424) (xy 1.946571 2.944831) (xy 1.668473 2.953446) (xy 1.400248 2.938998) (xy 1.33976 2.932036)
			(xy 1.044093 2.875144) (xy 0.781678 2.784662) (xy 0.552619 2.660678) (xy 0.357021 2.503277) (xy 0.194988 2.312549)
			(xy 0.066624 2.088579) (xy -0.027965 1.831455) (xy -0.041605 1.78084) (xy -0.055757 1.697961) (xy -0.067281 1.575616)
			(xy -0.076184 1.42161) (xy -0.082472 1.243745) (xy -0.086155 1.049828) (xy -0.08724 0.847662) (xy -0.085733 0.645051)
			(xy -0.081643 0.4498) (xy -0.081642 0.449767) (xy 0.798279 0.449767) (xy 1.716449 0.449767) (xy 2.634618 0.449767)
			(xy 2.620068 0.243582) (xy 2.588095 0.038668) (xy 2.522978 -0.133022) (xy 2.423967 -0.272212) (xy 2.290312 -0.379629)
			(xy 2.121262 -0.455998) (xy 1.916069 -0.502043) (xy 1.84004 -0.51073) (xy 1.636981 -0.513539) (xy 1.441302 -0.486834)
			(xy 1.262446 -0.433267) (xy 1.109853 -0.355491) (xy 1.014148 -0.278739) (xy 0.919611 -0.160976) (xy 0.855933 -0.023974)
			(xy 0.819601 0.141247) (xy 0.810273 0.242637) (xy 0.798279 0.449767) (xy -0.081642 0.449767) (xy -0.074976 0.269713)
			(xy -0.065742 0.112595) (xy -0.053946 -0.013751) (xy -0.039792 -0.10069) (xy 0.041835 -0.351914)
			(xy 0.161571 -0.578162) (xy 0.316512 -0.776064) (xy 0.503751 -0.942248) (xy 0.720381 -1.073343) (xy 0.844806 -1.126951)
			(xy 0.999249 -1.179923) (xy 1.146202 -1.217833) (xy 1.298816 -1.242748) (xy 1.47024 -1.256733) (xy 1.673625 -1.261853)
			(xy 1.70438 -1.261978)
		)
		(stroke
			(width 0)
			(type solid)
		)
		(fill solid)
		(layer "F.SilkS")
		(uuid "de033ccd-0ed1-44e8-a0f6-e5d74ee4ce62")
	)
	(fp_poly
		(pts
			(xy 9.014407 -1.254788) (xy 9.297618 -1.206622) (xy 9.303075 -1.205348) (xy 9.568004 -1.122449) (xy 9.804456 -1.005773)
			(xy 10.009638 -0.857424) (xy 10.180755 -0.679503) (xy 10.315013 -0.474111) (xy 10.339019 -0.426095)
			(xy 10.390806 -0.312414) (xy 10.430123 -0.211896) (xy 10.458648 -0.114918) (xy 10.478057 -0.01186)
			(xy 10.490028 0.106901) (xy 10.496238 0.250986) (xy 10.498363 0.430018) (xy 10.498455 0.488658) (xy 10.498148 0.647035)
			(xy 10.496748 0.765083) (xy 10.493599 0.849812) (xy 10.488047 0.908235) (xy 10.479437 0.947364) (xy 10.467114 0.974209)
			(xy 10.451165 0.994954) (xy 10.427955 1.020103) (xy 10.404144 1.041385) (xy 10.375796 1.059123) (xy 10.338972 1.07364)
			(xy 10.289735 1.085258) (xy 10.224147 1.094299) (xy 10.138272 1.101088) (xy 10.028171 1.105946) (xy 9.889908 1.109197)
			(xy 9.719545 1.111163) (xy 9.513144 1.112168) (xy 9.266768 1.112533) (xy 9.016373 1.112582) (xy 7.781272 1.112582)
			(xy 7.79473 1.355219) (xy 7.810363 1.530507) (xy 7.837776 1.669273) (xy 7.880504 1.781614) (xy 7.942087 1.87763)
			(xy 8.000557 1.942793) (xy 8.117825 2.038795) (xy 8.253151 2.106786) (xy 8.414974 2.149901) (xy 8.611733 2.17127)
			(xy 8.616589 2.171524) (xy 8.838273 2.17275) (xy 9.027015 2.149417) (xy 9.192308 2.097958) (xy 9.343648 2.014803)
			(xy 9.490527 1.896386) (xy 9.576933 1.810648) (xy 9.669394 1.716535) (xy 9.738075 1.654759) (xy 9.788781 1.620695)
			(xy 9.827314 1.609718) (xy 9.829133 1.609692) (xy 9.883738 1.621867) (xy 9.965953 1.654294) (xy 10.064085 1.700831)
			(xy 10.166443 1.755333) (xy 10.261333 1.811657) (xy 10.337063 1.86366) (xy 10.374231 1.896106) (xy 10.423683 1.967882)
			(xy 10.435762 2.044565) (xy 10.410995 2.13671) (xy 10.388659 2.18468) (xy 10.334203 2.267483) (xy 10.250634 2.366019)
			(xy 10.148499 2.470171) (xy 10.038347 2.569819) (xy 9.930728 2.654846) (xy 9.836188 2.715132) (xy 9.835058 2.715726)
			(xy 9.617118 2.808985) (xy 9.366097 2.880263) (xy 9.091522 2.928215) (xy 8.802919 2.951499) (xy 8.509815 2.948772)
			(xy 8.308854 2.930889) (xy 8.16921 2.905912) (xy 8.012465 2.865576) (xy 7.854869 2.815063) (xy 7.712676 2.759556)
			(xy 7.606811 2.707006) (xy 7.404669 2.561912) (xy 7.235562 2.38347) (xy 7.100214 2.172936) (xy 6.999348 1.931566)
			(xy 6.933688 1.660616) (xy 6.913193 1.503169) (xy 6.902047 1.3475) (xy 6.894406 1.161472) (xy 6.890265 0.957186)
			(xy 6.889621 0.746745) (xy 6.89247 0.542254) (xy 6.895613 0.449767) (xy 7.781039 0.449767) (xy 8.699208 0.449767)
			(xy 9.617378 0.449767) (xy 9.605506 0.241558) (xy 9.577369 0.038988) (xy 9.517091 -0.129832) (xy 9.423256 -0.266373)
			(xy 9.294446 -0.372105) (xy 9.129244 -0.448498) (xy 8.926231 -0.497023) (xy 8.888115 -0.502573) (xy 8.652344 -0.516043)
			(xy 8.435706 -0.491811) (xy 8.242156 -0.430862) (xy 8.075646 -0.334182) (xy 8.017395 -0.285629) (xy 7.91915 -0.172774)
			(xy 7.851052 -0.039682) (xy 7.809642 0.121981) (xy 7.795141 0.24993) (xy 7.781039 0.449767) (xy 6.895613 0.449767)
			(xy 6.898806 0.355813) (xy 6.908628 0.199528) (xy 6.913656 0.147017) (xy 6.964178 -0.137022) (xy 7.050166 -0.390288)
			(xy 7.171369 -0.612382) (xy 7.327538 -0.802904) (xy 7.518421 -0.961455) (xy 7.6618 -1.047603) (xy 7.892043 -1.145717)
			(xy 8.151972 -1.216409) (xy 8.432039 -1.258764) (xy 8.722699 -1.271862)
		)
		(stroke
			(width 0)
			(type solid)
		)
		(fill solid)
		(layer "F.SilkS")
		(uuid "65014125-cb7f-4849-8644-fe8cae7232b6")
	)
	(fp_poly
		(pts
			(xy 12.790633 -1.265598) (xy 13.073657 -1.233349) (xy 13.340282 -1.17435) (xy 13.580578 -1.089445)
			(xy 13.670163 -1.046833) (xy 13.822245 -0.950768) (xy 13.971175 -0.825918) (xy 14.104779 -0.684412)
			(xy 14.210881 -0.538378) (xy 14.247953 -0.471286) (xy 14.295155 -0.358056) (xy 14.309626 -0.272193)
			(xy 14.290687 -0.20622) (xy 14.237656 -0.15266) (xy 14.217791 -0.139593) (xy 14.147504 -0.102084)
			(xy 14.054376 -0.060034) (xy 13.948974 -0.0173) (xy 13.841862 0.02226) (xy 13.743607 0.05479) (xy 13.664774 0.076434)
			(xy 13.61593 0.083334) (xy 13.609779 0.082347) (xy 13.575565 0.057458) (xy 13.52338 0.003372) (xy 13.462227 -0.070201)
			(xy 13.43451 -0.106636) (xy 13.319231 -0.241469) (xy 13.194618 -0.342341) (xy 13.053593 -0.412089)
			(xy 12.889082 -0.453545) (xy 12.694008 -0.469544) (xy 12.534747 -0.467082) (xy 12.357568 -0.453421)
			(xy 12.218764 -0.428914) (xy 12.110103 -0.391033) (xy 12.023352 -0.337252) (xy 11.978372 -0.296278)
			(xy 11.923869 -0.227355) (xy 11.896599 -0.151993) (xy 11.888919 -0.09731) (xy 11.885196 0.017967)
			(xy 11.902731 0.105804) (xy 11.945792 0.182952) (xy 11.967145 0.20989) (xy 12.022973 0.261432) (xy 12.099619 0.304882)
			(xy 12.202512 0.341855) (xy 12.33708 0.373967) (xy 12.508751 0.402836) (xy 12.696326 0.427016) (xy 12.971905 0.461563)
			(xy 13.205777 0.496853) (xy 13.403568 0.534488) (xy 13.570907 0.576069) (xy 13.713422 0.623197) (xy 13.836741 0.677473)
			(xy 13.946492 0.740498) (xy 14.043891 0.810388) (xy 14.173767 0.941523) (xy 14.272748 1.101542) (xy 14.340837 1.283461)
			(xy 14.37804 1.480297) (xy 14.384364 1.685064) (xy 14.359811 1.89078) (xy 14.304389 2.090459) (xy 14.218102 2.277118)
			(xy 14.100955 2.443772) (xy 14.042629 2.506047) (xy 13.862661 2.650526) (xy 13.647529 2.768552) (xy 13.402132 2.858899)
			(xy 13.13137 2.920341) (xy 12.840141 2.951652) (xy 12.533344 2.951604) (xy 12.330851 2.934523) (xy 12.036957 2.881804)
			(xy 11.771591 2.796419) (xy 11.536946 2.67971) (xy 11.33522 2.533021) (xy 11.168608 2.357695) (xy 11.039306 2.155075)
			(xy 11.0317 2.139885) (xy 10.975564 2.015473) (xy 10.946585 1.921552) (xy 10.943873 1.850469) (xy 10.96654 1.794573)
			(xy 10.988577 1.768451) (xy 11.036961 1.736555) (xy 11.119095 1.698427) (xy 11.222556 1.658306) (xy 11.334922 1.620427)
			(xy 11.443769 1.589028) (xy 11.536676 1.568343) (xy 11.59291 1.562349) (xy 11.663423 1.58071) (xy 11.729208 1.638225)
			(xy 11.79413 1.738537) (xy 11.807731 1.764813) (xy 11.897977 1.900177) (xy 12.019041 2.005729) (xy 12.172975 2.082394)
			(xy 12.361831 2.131099) (xy 12.58766 2.15277) (xy 12.669636 2.154147) (xy 12.910758 2.142821) (xy 13.110622 2.108755)
			(xy 13.269569 2.051818) (xy 13.387937 1.971881) (xy 13.466066 1.868812) (xy 13.477692 1.843494) (xy 13.511553 1.709068)
			(xy 13.500849 1.584283) (xy 13.448075 1.473608) (xy 13.355727 1.381516) (xy 13.226302 1.312478) (xy 13.171046 1.29411)
			(xy 13.090949 1.275145) (xy 12.979215 1.254033) (xy 12.851298 1.233483) (xy 12.735508 1.217757) (xy 12.456603 1.181934)
			(xy 12.219863 1.147331) (xy 12.020184 1.112432) (xy 11.852467 1.075719) (xy 11.71161 1.035675) (xy 11.592512 0.990783)
			(xy 11.490073 0.939527) (xy 11.39919 0.880388) (xy 11.314763 0.811851) (xy 11.287767 0.78721) (xy 11.167718 0.643839)
			(xy 11.077389 0.470803) (xy 11.01775 0.276053) (xy 10.989769 0.06754) (xy 10.994415 -0.146788) (xy 11.032659 -0.358979)
			(xy 11.105468 -0.561084) (xy 11.119779 -0.590735) (xy 11.223179 -0.748656) (xy 11.365548 -0.893775)
			(xy 11.539041 -1.020343) (xy 11.735812 -1.122615) (xy 11.942498 -1.193425) (xy 12.215121 -1.246479)
			(xy 12.501144 -1.270256)
		)
		(stroke
			(width 0)
			(type solid)
		)
		(fill solid)
		(layer "F.SilkS")
		(uuid "e647d752-943c-4af9-851e-5b1fe458afd6")
	)
	(fp_poly
		(pts
			(xy -14.842812 -2.686552) (xy -14.740655 -2.685166) (xy -14.669905 -2.681494) (xy -14.62259 -2.674423)
			(xy -14.590743 -2.662838) (xy -14.566393 -2.645625) (xy -14.545291 -2.625389) (xy -14.530191 -2.602316)
			(xy -14.505752 -2.553329) (xy -14.471349 -2.476859) (xy -14.426355 -2.371335) (xy -14.370142 -2.235185)
			(xy -14.302083 -2.066839) (xy -14.221551 -1.864727) (xy -14.12792 -1.627277) (xy -14.020563 -1.35292)
			(xy -13.898851 -1.040083) (xy -13.762159 -0.687197) (xy -13.60986 -0.29269) (xy -13.491718 0.014033)
			(xy -13.362846 0.349198) (xy -13.238605 0.67293) (xy -13.120076 0.982387) (xy -13.008336 1.274724)
			(xy -12.904465 1.547099) (xy -12.809541 1.796669) (xy -12.724643 2.020592) (xy -12.65085 2.216023)
			(xy -12.58924 2.380119) (xy -12.540893 2.510039) (xy -12.506887 2.602939) (xy -12.488301 2.655975)
			(xy -12.4851 2.666794) (xy -12.483819 2.7342) (xy -12.516538 2.787296) (xy -12.520242 2.791072) (xy -12.542491 2.810121)
			(xy -12.570226 2.823559) (xy -12.611466 2.832351) (xy -12.674229 2.837461) (xy -12.766533 2.839855)
			(xy -12.896395 2.840499) (xy -12.930802 2.840502) (xy -13.110818 2.838311) (xy -13.249494 2.831195)
			(xy -13.352676 2.818118) (xy -13.426208 2.798042) (xy -13.475933 2.769932) (xy -13.503909 2.738854)
			(xy -13.521911 2.701492) (xy -13.552667 2.626935) (xy -13.59328 2.522665) (xy -13.640851 2.39617)
			(xy -13.692481 2.254932) (xy -13.707426 2.213327) (xy -13.759287 2.068401) (xy -13.807008 1.935086)
			(xy -13.847825 1.821099) (xy -13.878975 1.734155) (xy -13.897695 1.681971) (xy -13.900278 1.67479)
			(xy -13.923737 1.609692) (xy -15.00658 1.609692) (xy -16.089422 1.609692) (xy -16.300303 2.183737)
			(xy -16.368584 2.370722) (xy -16.423901 2.518516) (xy -16.471312 2.631708) (xy -16.515878 2.714887)
			(xy -16.56266 2.77264) (xy -16.616717 2.809557) (xy -16.68311 2.830224) (xy -16.766898 2.83923) (xy -16.873142 2.841163)
			(xy -17.006903 2.840612) (xy -17.024728 2.840597) (xy -17.16059 2.840222) (xy -17.257667 2.838289)
			(xy -17.324514 2.833637) (xy -17.369689 2.825106) (xy -17.401748 2.811535) (xy -17.429249 2.791763)
			(xy -17.43775 2.784568) (xy -17.478548 2.744928) (xy -17.491104 2.709283) (xy -17.480815 2.656184)
			(xy -17.474987 2.636619) (xy -17.462967 2.60282) (xy -17.435051 2.527717) (xy -17.39234 2.414196)
			(xy -17.335933 2.265141) (xy -17.26693 2.083437) (xy -17.18643 1.871968) (xy -17.095534 1.633621)
			(xy -16.995339 1.371279) (xy -16.886948 1.087828) (xy -16.771458 0.786152) (xy -16.767282 0.775256)
			(xy -15.806575 0.775256) (xy -15.800425 0.783511) (xy -15.772454 0.79018) (xy -15.718847 0.795403)
			(xy -15.635789 0.799323) (xy -15.519466 0.802083) (xy -15.366064 0.803823) (xy -15.171766 0.804687)
			(xy -15.011958 0.804846) (xy -14.205989 0.804846) (xy -14.261095 0.645061) (xy -14.283201 0.582042)
			(xy -14.318869 0.481674) (xy -14.365533 0.351119) (xy -14.420628 0.197538) (xy -14.481585 0.028095)
			(xy -14.54584 -0.15005) (xy -14.564325 -0.201212) (xy -14.653455 -0.449415) (xy -14.727371 -0.659671)
			(xy -14.787824 -0.838228) (xy -14.836566 -0.99134) (xy -14.875349 -1.125255) (xy -14.905925 -1.246226)
			(xy -14.930045 -1.360503) (xy -14.949462 -1.474336) (xy -14.965928 -1.593977) (xy -14.974299 -1.663975)
			(xy -14.988593 -1.748628) (xy -15.005515 -1.787512) (xy -15.023341 -1.782003) (xy -15.04035 -1.733475)
			(xy -15.05482 -1.643303) (xy -15.059505 -1.595946) (xy -15.07095 -1.4868) (xy -15.08744 -1.377089)
			(xy -15.110511 -1.261445) (xy -15.141696 -1.1345) (xy -15.182532 -0.990887) (xy -15.234552 -0.825236)
			(xy -15.299291 -0.632181) (xy -15.378285 -0.406352) (xy -15.473068 -0.142383) (xy -15.482664 -0.115913)
			(xy -15.552458 0.076432) (xy -15.617405 0.255341) (xy -15.675686 0.415803) (xy -15.72548 0.552809)
			(xy -15.764965 0.661348) (xy -15.792319 0.736411) (xy -15.805724 0.772987) (xy -15.806575 0.775256)
			(xy -16.767282 0.775256) (xy -16.64997 0.469136) (xy -16.523583 0.139665) (xy -16.466494 -0.009053)
			(xy -16.304762 -0.429794) (xy -16.159024 -0.807879) (xy -16.028619 -1.144967) (xy -15.912884 -1.442719)
			(xy -15.811157 -1.702795) (xy -15.722778 -1.926855) (xy -15.647084 -2.11656) (xy -15.583413 -2.27357)
			(xy -15.531104 -2.399546) (xy -15.489496 -2.496148) (xy -15.457925 -2.565036) (xy -15.435731 -2.607871)
			(xy -15.423981 -2.624803) (xy -15.399541 -2.647984) (xy -15.374663 -2.664515) (xy -15.341372 -2.67552)
			(xy -15.291693 -2.682124) (xy -15.217651 -2.68545) (xy -15.111269 -2.686623) (xy -14.984343 -2.686766)
		)
		(stroke
			(width 0)
			(type solid)
		)
		(fill solid)
		(layer "F.SilkS")
		(uuid "4704e570-77fb-4acb-9a46-0578cb5e137c")
	)
	(fp_poly
		(pts
			(xy -1.97017 -1.260407) (xy -1.691523 -1.213744) (xy -1.448006 -1.135558) (xy -1.239204 -1.025596)
			(xy -1.064699 -0.883607) (xy -0.924076 -0.709336) (xy -0.852345 -0.582142) (xy -0.822285 -0.520197)
			(xy -0.796465 -0.464469) (xy -0.774543 -0.410948) (xy -0.756176 -0.355625) (xy -0.741022 -0.294492)
			(xy -0.728739 -0.223537) (xy -0.718986 -0.138751) (xy -0.711419 -0.036126) (xy -0.705697 0.088348)
			(xy -0.701478 0.238682) (xy -0.698419 0.418884) (xy -0.696179 0.632964) (xy -0.694415 0.884931) (xy -0.692784 1.178796)
			(xy -0.692168 1.29502) (xy -0.69061 1.5928) (xy -0.68942 1.846849) (xy -0.688697 2.060779) (xy -0.688539 2.2382)
			(xy -0.689043 2.382726) (xy -0.690308 2.497967) (xy -0.692431 2.587535) (xy -0.695512 2.655042) (xy -0.699647 2.7041)
			(xy -0.704934 2.738321) (xy -0.711473 2.761316) (xy -0.719361 2.776697) (xy -0.728695 2.788075) (xy -0.732811 2.792271)
			(xy -0.755677 2.811423) (xy -0.785 2.824753) (xy -0.829093 2.8333) (xy -0.896273 2.838103) (xy -0.994855 2.8402)
			(xy -1.119893 2.840634) (xy -1.268372 2.839587) (xy -1.376704 2.834777) (xy -1.45207 2.8237) (xy -1.50165 2.803854)
			(xy -1.532626 2.772735) (xy -1.552178 2.727841) (xy -1.563085 2.686132) (xy -1.567301 2.644674) (xy -1.571276 2.560698)
			(xy -1.574927 2.439032) (xy -1.578173 2.284499) (xy -1.580934 2.101928) (xy -1.583128 1.896144) (xy -1.584674 1.671974)
			(xy -1.58549 1.434243) (xy -1.585588 1.349301) (xy -1.586225 1.05771) (xy -1.587759 0.796635) (xy -1.590144 0.568641)
			(xy -1.593332 0.376292) (xy -1.597273 0.222156) (xy -1.601921 0.108795) (xy -1.607227 0.038776) (xy -1.610462 0.019475)
			(xy -1.675502 -0.129896) (xy -1.778136 -0.258902) (xy -1.909618 -0.356873) (xy -1.926176 -0.36566)
			(xy -2.00129 -0.400733) (xy -2.07025 -0.423071) (xy -2.149291 -0.436194) (xy -2.254644 -0.443622)
			(xy -2.293092 -0.445239) (xy -2.445931 -0.443075) (xy -2.615459 -0.427589) (xy -2.784784 -0.401286)
			(xy -2.937015 -0.366671) (xy -3.033197 -0.335446) (xy -3.095565 -0.310983) (xy -3.059243 -0.173246)
			(xy -3.050988 -0.134797) (xy -3.043874 -0.084127) (xy -3.037775 -0.017374) (xy -3.032564 0.069325)
			(xy -3.028116 0.179834) (xy -3.024304 0.318016) (xy -3.021003 0.487733) (xy -3.018086 0.692849) (xy -3.015427 0.937227)
			(xy -3.0129 1.224729) (xy -3.012669 1.25355) (xy -3.011008 1.499633) (xy -3.009994 1.734106) (xy -3.009609 1.952201)
			(xy -3.009834 2.149154) (xy -3.010652 2.3202) (xy -3.012046 2.460572) (xy -3.013996 2.565505) (xy -3.016486 2.630233)
			(xy -3.01792 2.645983) (xy -3.031316 2.716151) (xy -3.051923 2.767123) (xy -3.086708 2.801943) (xy -3.142636 2.823656)
			(xy -3.226677 2.835306) (xy -3.345796 2.839936) (xy -3.463416 2.840634) (xy -3.610653 2.839314) (xy -3.717141 2.834973)
			(xy -3.789409 2.827041) (xy -3.833988 2.81495) (xy -3.848085 2.807056) (xy -3.857881 2.798379) (xy -3.866234 2.785319)
			(xy -3.873302 2.764162) (xy -3.879245 2.731196) (xy -3.884219 2.682708) (xy -3.888384 2.614983) (xy -3.891897 2.524309)
			(xy -3.894917 2.406972) (xy -3.897602 2.25926) (xy -3.90011 2.077458) (xy -3.9026 1.857854) (xy -3.905229 1.596735)
			(xy -3.906849 1.428165) (xy -3.909727 1.138093) (xy -3.912494 0.891486) (xy -3.915295 0.684466) (xy -3.918271 0.513153)
			(xy -3.921569 0.373671) (xy -3.925331 0.26214) (xy -3.929701 0.174682) (xy -3.934824 0.10742) (xy -3.940843 0.056474)
			(xy -3.947902 0.017966) (xy -3.956145 -0.011982) (xy -3.960771 -0.024998) (xy -4.041836 -0.176374)
			(xy -4.157993 -0.296137) (xy -4.278399 -0.370698) (xy -4.355442 -0.404413) (xy -4.430007 -0.425859)
			(xy -4.518629 -0.438472) (xy -4.637838 -0.44569) (xy -4.639404 -0.445754) (xy -4.780398 -0.445528)
			(xy -4.926876 -0.435223) (xy -5.067212 -0.41659) (xy -5.189776 -0.391379) (xy -5.282942 -0.36134)
			(xy -5.31689 -0.343757) (xy -5.372519 -0.307308) (xy -5.378944 1.221419) (xy -5.385368 2.750145)
			(xy -5.441253 2.79539) (xy -5.469058 2.813715) (xy -5.505112 2.826374) (xy -5.558019 2.834376) (xy -5.636386 2.838731)
			(xy -5.748816 2.840448) (xy -5.826998 2.840634) (xy -5.958413 2.840264) (xy -6.051164 2.838289) (xy -6.113929 2.833409)
			(xy -6.155387 2.824324) (xy -6.184217 2.809733) (xy -6.209097 2.788339) (xy -6.214962 2.78253) (xy -6.273066 2.724426)
			(xy -6.273066 1.006373) (xy -6.273066 0.669271) (xy -6.272916 0.376249) (xy -6.272388 0.124043) (xy -6.271256 -0.09061)
			(xy -6.269295 -0.270975) (xy -6.266277 -0.420315) (xy -6.261975 -0.541894) (xy -6.256165 -0.638975)
			(xy -6.248618 -0.714823) (xy -6.239109 -0.772702) (xy -6.227412 -0.815874) (xy -6.213299 -0.847605)
			(xy -6.196544 -0.871157) (xy -6.176921 -0.889794) (xy -6.154204 -0.906781) (xy -6.13961 -0.917099)
			(xy -6.043018 -0.972608) (xy -5.909147 -1.030664) (xy -5.747724 -1.088159) (xy -5.568476 -1.141982)
			(xy -5.38113 -1.189026) (xy -5.195412 -1.226182) (xy -5.148649 -1.233831) (xy -5.053553 -1.244765)
			(xy -4.926279 -1.254035) (xy -4.781982 -1.260791) (xy -4.635821 -1.264181) (xy -4.604194 -1.264393)
			(xy -4.383718 -1.260251) (xy -4.198993 -1.244917) (xy -4.039327 -1.216402) (xy -3.894031 -1.17272)
			(xy -3.752415 -1.111881) (xy -3.733365 -1.102431) (xy -3.573647 -1.022072) (xy -3.37531 -1.089532)
			(xy -3.090901 -1.17081) (xy -2.787835 -1.229673) (xy -2.480891 -1.264324) (xy -2.184848 -1.272966)
		)
		(stroke
			(width 0)
			(type solid)
		)
		(fill solid)
		(layer "F.SilkS")
		(uuid "823f0ce0-514c-41d2-9019-043cb313d8ee")
	)
)
