(kicad_symbol_lib
	(version 20231120)
	(generator "kicad_symbol_editor")
	(generator_version "8.0")
	(symbol "4610X-102-221LF"
		(exclude_from_sim no)
		(in_bom yes)
		(on_board yes)
		(property "Reference" "RN"
			(at 1.27 14.224 0)
			(effects
				(font
					(size 1.27 1.27)
				)
			)
		)
		(property "Value" ""
			(at -2.54 2.54 0)
			(effects
				(font
					(size 1.27 1.27)
				)
			)
		)
		(property "Footprint" ""
			(at -2.54 2.54 0)
			(effects
				(font
					(size 1.27 1.27)
				)
				(hide yes)
			)
		)
		(property "Datasheet" ""
			(at -2.54 2.54 0)
			(effects
				(font
					(size 1.27 1.27)
				)
				(hide yes)
			)
		)
		(property "Description" ""
			(at -2.54 2.54 0)
			(effects
				(font
					(size 1.27 1.27)
				)
				(hide yes)
			)
		)
		(symbol "4610X-102-221LF_0_1"
			(rectangle
				(start -2.54 12.7)
				(end 5.08 -12.7)
				(stroke
					(width 0)
					(type default)
				)
				(fill
					(type none)
				)
			)
		)
		(symbol "4610X-102-221LF_1_1"
			(pin input line
				(at -5.08 11.43 0)
				(length 2.54)
				(name "1"
					(effects
						(font
							(size 1.27 1.27)
						)
					)
				)
				(number "1"
					(effects
						(font
							(size 1.27 1.27)
						)
					)
				)
			)
			(pin output line
				(at -5.08 -11.43 0)
				(length 2.54)
				(name "10"
					(effects
						(font
							(size 1.27 1.27)
						)
					)
				)
				(number "10"
					(effects
						(font
							(size 1.27 1.27)
						)
					)
				)
			)
			(pin output line
				(at -5.08 8.89 0)
				(length 2.54)
				(name "2"
					(effects
						(font
							(size 1.27 1.27)
						)
					)
				)
				(number "2"
					(effects
						(font
							(size 1.27 1.27)
						)
					)
				)
			)
			(pin input line
				(at -5.08 6.35 0)
				(length 2.54)
				(name "3"
					(effects
						(font
							(size 1.27 1.27)
						)
					)
				)
				(number "3"
					(effects
						(font
							(size 1.27 1.27)
						)
					)
				)
			)
			(pin output line
				(at -5.08 3.81 0)
				(length 2.54)
				(name "4"
					(effects
						(font
							(size 1.27 1.27)
						)
					)
				)
				(number "4"
					(effects
						(font
							(size 1.27 1.27)
						)
					)
				)
			)
			(pin input line
				(at -5.08 1.27 0)
				(length 2.54)
				(name "5"
					(effects
						(font
							(size 1.27 1.27)
						)
					)
				)
				(number "5"
					(effects
						(font
							(size 1.27 1.27)
						)
					)
				)
			)
			(pin output line
				(at -5.08 -1.27 0)
				(length 2.54)
				(name "6"
					(effects
						(font
							(size 1.27 1.27)
						)
					)
				)
				(number "6"
					(effects
						(font
							(size 1.27 1.27)
						)
					)
				)
			)
			(pin input line
				(at -5.08 -3.81 0)
				(length 2.54)
				(name "7"
					(effects
						(font
							(size 1.27 1.27)
						)
					)
				)
				(number "7"
					(effects
						(font
							(size 1.27 1.27)
						)
					)
				)
			)
			(pin output line
				(at -5.08 -6.35 0)
				(length 2.54)
				(name "8"
					(effects
						(font
							(size 1.27 1.27)
						)
					)
				)
				(number "8"
					(effects
						(font
							(size 1.27 1.27)
						)
					)
				)
			)
			(pin input line
				(at -5.08 -8.89 0)
				(length 2.54)
				(name "9"
					(effects
						(font
							(size 1.27 1.27)
						)
					)
				)
				(number "9"
					(effects
						(font
							(size 1.27 1.27)
						)
					)
				)
			)
		)
	)
	(symbol "DS1092-04-B6P"
		(exclude_from_sim no)
		(in_bom yes)
		(on_board yes)
		(property "Reference" "H"
			(at 16.51 7.62 0)
			(effects
				(font
					(size 1.27 1.27)
				)
				(justify left top)
			)
		)
		(property "Value" "DS1092-04-B6P"
			(at 16.51 5.08 0)
			(effects
				(font
					(size 1.27 1.27)
				)
				(justify left top)
			)
		)
		(property "Footprint" "DS109204B6P"
			(at 16.51 -94.92 0)
			(effects
				(font
					(size 1.27 1.27)
				)
				(justify left top)
				(hide yes)
			)
		)
		(property "Datasheet" "http://en.connfly.group/static/upload/file/pdf/DS1092-04.pdf"
			(at 16.51 -194.92 0)
			(effects
				(font
					(size 1.27 1.27)
				)
				(justify left top)
				(hide yes)
			)
		)
		(property "Description" "2032 Lithium Coin Cell Battery Holders DIP Push Type"
			(at 0 0 0)
			(effects
				(font
					(size 1.27 1.27)
				)
				(hide yes)
			)
		)
		(property "Height" "9.08"
			(at 16.51 -394.92 0)
			(effects
				(font
					(size 1.27 1.27)
				)
				(justify left top)
				(hide yes)
			)
		)
		(property "TME Electronic Components Part Number" ""
			(at 16.51 -494.92 0)
			(effects
				(font
					(size 1.27 1.27)
				)
				(justify left top)
				(hide yes)
			)
		)
		(property "TME Electronic Components Price/Stock" ""
			(at 16.51 -594.92 0)
			(effects
				(font
					(size 1.27 1.27)
				)
				(justify left top)
				(hide yes)
			)
		)
		(property "Manufacturer_Name" "Connfly"
			(at 16.51 -694.92 0)
			(effects
				(font
					(size 1.27 1.27)
				)
				(justify left top)
				(hide yes)
			)
		)
		(property "Manufacturer_Part_Number" "DS1092-04-B6P"
			(at 16.51 -794.92 0)
			(effects
				(font
					(size 1.27 1.27)
				)
				(justify left top)
				(hide yes)
			)
		)
		(symbol "DS1092-04-B6P_1_1"
			(rectangle
				(start 5.08 2.54)
				(end 15.24 -5.08)
				(stroke
					(width 0.254)
					(type default)
				)
				(fill
					(type background)
				)
			)
			(pin passive line
				(at 0 0 0)
				(length 5.08)
				(name "GND"
					(effects
						(font
							(size 1.27 1.27)
						)
					)
				)
				(number "1"
					(effects
						(font
							(size 1.27 1.27)
						)
					)
				)
			)
			(pin passive line
				(at 0 -2.54 0)
				(length 5.08)
				(name "+3V"
					(effects
						(font
							(size 1.27 1.27)
						)
					)
				)
				(number "2"
					(effects
						(font
							(size 1.27 1.27)
						)
					)
				)
			)
		)
	)
	(symbol "Input_switch"
		(exclude_from_sim no)
		(in_bom yes)
		(on_board yes)
		(property "Reference" "SW"
			(at -0.762 5.08 0)
			(effects
				(font
					(size 1.27 1.27)
				)
			)
		)
		(property "Value" ""
			(at 0 0 0)
			(effects
				(font
					(size 1.27 1.27)
				)
			)
		)
		(property "Footprint" ""
			(at 0 0 0)
			(effects
				(font
					(size 1.27 1.27)
				)
				(hide yes)
			)
		)
		(property "Datasheet" ""
			(at 0 0 0)
			(effects
				(font
					(size 1.27 1.27)
				)
				(hide yes)
			)
		)
		(property "Description" ""
			(at 0 0 0)
			(effects
				(font
					(size 1.27 1.27)
				)
				(hide yes)
			)
		)
		(symbol "Input_switch_0_1"
			(rectangle
				(start -3.81 3.81)
				(end 2.54 -1.27)
				(stroke
					(width 0)
					(type default)
				)
				(fill
					(type none)
				)
			)
		)
		(symbol "Input_switch_1_1"
			(pin input line
				(at -6.35 2.54 0)
				(length 2.54)
				(name "T"
					(effects
						(font
							(size 1.27 1.27)
						)
					)
				)
				(number "1"
					(effects
						(font
							(size 1.27 1.27)
						)
					)
				)
			)
			(pin output line
				(at 5.08 1.27 180)
				(length 2.54)
				(name "M"
					(effects
						(font
							(size 1.27 1.27)
						)
					)
				)
				(number "2"
					(effects
						(font
							(size 1.27 1.27)
						)
					)
				)
			)
			(pin input line
				(at -6.35 0 0)
				(length 2.54)
				(name "D"
					(effects
						(font
							(size 1.27 1.27)
						)
					)
				)
				(number "3"
					(effects
						(font
							(size 1.27 1.27)
						)
					)
				)
			)
		)
	)
	(symbol "SN74HC00N"
		(exclude_from_sim no)
		(in_bom yes)
		(on_board yes)
		(property "Reference" "IC"
			(at 21.59 7.62 0)
			(effects
				(font
					(size 1.27 1.27)
				)
				(justify left top)
			)
		)
		(property "Value" "SN74HC00N"
			(at 21.59 5.08 0)
			(effects
				(font
					(size 1.27 1.27)
				)
				(justify left top)
			)
		)
		(property "Footprint" "DIP794W53P254L1930H508Q14N"
			(at 21.59 -94.92 0)
			(effects
				(font
					(size 1.27 1.27)
				)
				(justify left top)
				(hide yes)
			)
		)
		(property "Datasheet" "http://componentsearchengine.com/Datasheets/3/SN74HC00N.pdf"
			(at 21.59 -194.92 0)
			(effects
				(font
					(size 1.27 1.27)
				)
				(justify left top)
				(hide yes)
			)
		)
		(property "Description" "Quad 2i/p NANDgate,SN74HC00N DIP14 25pcs"
			(at 0 0 0)
			(effects
				(font
					(size 1.27 1.27)
				)
				(hide yes)
			)
		)
		(property "Height" "5.08"
			(at 21.59 -394.92 0)
			(effects
				(font
					(size 1.27 1.27)
				)
				(justify left top)
				(hide yes)
			)
		)
		(property "TME Electronic Components Part Number" ""
			(at 21.59 -494.92 0)
			(effects
				(font
					(size 1.27 1.27)
				)
				(justify left top)
				(hide yes)
			)
		)
		(property "TME Electronic Components Price/Stock" ""
			(at 21.59 -594.92 0)
			(effects
				(font
					(size 1.27 1.27)
				)
				(justify left top)
				(hide yes)
			)
		)
		(property "Manufacturer_Name" "Texas Instruments"
			(at 21.59 -694.92 0)
			(effects
				(font
					(size 1.27 1.27)
				)
				(justify left top)
				(hide yes)
			)
		)
		(property "Manufacturer_Part_Number" "SN74HC00N"
			(at 21.59 -794.92 0)
			(effects
				(font
					(size 1.27 1.27)
				)
				(justify left top)
				(hide yes)
			)
		)
		(symbol "SN74HC00N_1_1"
			(rectangle
				(start 5.08 2.54)
				(end 20.32 -17.78)
				(stroke
					(width 0.254)
					(type default)
				)
				(fill
					(type background)
				)
			)
			(pin passive line
				(at 0 0 0)
				(length 5.08)
				(name "1A"
					(effects
						(font
							(size 1.27 1.27)
						)
					)
				)
				(number "1"
					(effects
						(font
							(size 1.27 1.27)
						)
					)
				)
			)
			(pin passive line
				(at 25.4 -10.16 180)
				(length 5.08)
				(name "3B"
					(effects
						(font
							(size 1.27 1.27)
						)
					)
				)
				(number "10"
					(effects
						(font
							(size 1.27 1.27)
						)
					)
				)
			)
			(pin passive line
				(at 25.4 -7.62 180)
				(length 5.08)
				(name "4Y"
					(effects
						(font
							(size 1.27 1.27)
						)
					)
				)
				(number "11"
					(effects
						(font
							(size 1.27 1.27)
						)
					)
				)
			)
			(pin passive line
				(at 25.4 -5.08 180)
				(length 5.08)
				(name "4A"
					(effects
						(font
							(size 1.27 1.27)
						)
					)
				)
				(number "12"
					(effects
						(font
							(size 1.27 1.27)
						)
					)
				)
			)
			(pin passive line
				(at 25.4 -2.54 180)
				(length 5.08)
				(name "4B"
					(effects
						(font
							(size 1.27 1.27)
						)
					)
				)
				(number "13"
					(effects
						(font
							(size 1.27 1.27)
						)
					)
				)
			)
			(pin passive line
				(at 25.4 0 180)
				(length 5.08)
				(name "VCC"
					(effects
						(font
							(size 1.27 1.27)
						)
					)
				)
				(number "14"
					(effects
						(font
							(size 1.27 1.27)
						)
					)
				)
			)
			(pin passive line
				(at 0 -2.54 0)
				(length 5.08)
				(name "1B"
					(effects
						(font
							(size 1.27 1.27)
						)
					)
				)
				(number "2"
					(effects
						(font
							(size 1.27 1.27)
						)
					)
				)
			)
			(pin passive line
				(at 0 -5.08 0)
				(length 5.08)
				(name "1Y"
					(effects
						(font
							(size 1.27 1.27)
						)
					)
				)
				(number "3"
					(effects
						(font
							(size 1.27 1.27)
						)
					)
				)
			)
			(pin passive line
				(at 0 -7.62 0)
				(length 5.08)
				(name "2A"
					(effects
						(font
							(size 1.27 1.27)
						)
					)
				)
				(number "4"
					(effects
						(font
							(size 1.27 1.27)
						)
					)
				)
			)
			(pin passive line
				(at 0 -10.16 0)
				(length 5.08)
				(name "2B"
					(effects
						(font
							(size 1.27 1.27)
						)
					)
				)
				(number "5"
					(effects
						(font
							(size 1.27 1.27)
						)
					)
				)
			)
			(pin passive line
				(at 0 -12.7 0)
				(length 5.08)
				(name "2Y"
					(effects
						(font
							(size 1.27 1.27)
						)
					)
				)
				(number "6"
					(effects
						(font
							(size 1.27 1.27)
						)
					)
				)
			)
			(pin passive line
				(at 0 -15.24 0)
				(length 5.08)
				(name "GND"
					(effects
						(font
							(size 1.27 1.27)
						)
					)
				)
				(number "7"
					(effects
						(font
							(size 1.27 1.27)
						)
					)
				)
			)
			(pin passive line
				(at 25.4 -15.24 180)
				(length 5.08)
				(name "3Y"
					(effects
						(font
							(size 1.27 1.27)
						)
					)
				)
				(number "8"
					(effects
						(font
							(size 1.27 1.27)
						)
					)
				)
			)
			(pin passive line
				(at 25.4 -12.7 180)
				(length 5.08)
				(name "3A"
					(effects
						(font
							(size 1.27 1.27)
						)
					)
				)
				(number "9"
					(effects
						(font
							(size 1.27 1.27)
						)
					)
				)
			)
		)
	)
	(symbol "SN74HC05N"
		(exclude_from_sim no)
		(in_bom yes)
		(on_board yes)
		(property "Reference" "IC"
			(at 21.59 7.62 0)
			(effects
				(font
					(size 1.27 1.27)
				)
				(justify left top)
			)
		)
		(property "Value" "SN74HC05N"
			(at 21.59 5.08 0)
			(effects
				(font
					(size 1.27 1.27)
				)
				(justify left top)
			)
		)
		(property "Footprint" "DIP794W53P254L1930H508Q14N"
			(at 21.59 -94.92 0)
			(effects
				(font
					(size 1.27 1.27)
				)
				(justify left top)
				(hide yes)
			)
		)
		(property "Datasheet" "http://www.ti.com/lit/gpn/sn74hc05"
			(at 21.59 -194.92 0)
			(effects
				(font
					(size 1.27 1.27)
				)
				(justify left top)
				(hide yes)
			)
		)
		(property "Description" "IC,Logic, Hex Inverter,O/D O/Ps,74HC05"
			(at 0 0 0)
			(effects
				(font
					(size 1.27 1.27)
				)
				(hide yes)
			)
		)
		(property "Height" "5.08"
			(at 21.59 -394.92 0)
			(effects
				(font
					(size 1.27 1.27)
				)
				(justify left top)
				(hide yes)
			)
		)
		(property "TME Electronic Components Part Number" ""
			(at 21.59 -494.92 0)
			(effects
				(font
					(size 1.27 1.27)
				)
				(justify left top)
				(hide yes)
			)
		)
		(property "TME Electronic Components Price/Stock" ""
			(at 21.59 -594.92 0)
			(effects
				(font
					(size 1.27 1.27)
				)
				(justify left top)
				(hide yes)
			)
		)
		(property "Manufacturer_Name" "Texas Instruments"
			(at 21.59 -694.92 0)
			(effects
				(font
					(size 1.27 1.27)
				)
				(justify left top)
				(hide yes)
			)
		)
		(property "Manufacturer_Part_Number" "SN74HC05N"
			(at 21.59 -794.92 0)
			(effects
				(font
					(size 1.27 1.27)
				)
				(justify left top)
				(hide yes)
			)
		)
		(symbol "SN74HC05N_1_1"
			(rectangle
				(start 5.08 2.54)
				(end 20.32 -17.78)
				(stroke
					(width 0.254)
					(type default)
				)
				(fill
					(type background)
				)
			)
			(pin passive line
				(at 0 0 0)
				(length 5.08)
				(name "1A"
					(effects
						(font
							(size 1.27 1.27)
						)
					)
				)
				(number "1"
					(effects
						(font
							(size 1.27 1.27)
						)
					)
				)
			)
			(pin passive line
				(at 25.4 -10.16 180)
				(length 5.08)
				(name "5Y"
					(effects
						(font
							(size 1.27 1.27)
						)
					)
				)
				(number "10"
					(effects
						(font
							(size 1.27 1.27)
						)
					)
				)
			)
			(pin passive line
				(at 25.4 -7.62 180)
				(length 5.08)
				(name "5A"
					(effects
						(font
							(size 1.27 1.27)
						)
					)
				)
				(number "11"
					(effects
						(font
							(size 1.27 1.27)
						)
					)
				)
			)
			(pin passive line
				(at 25.4 -5.08 180)
				(length 5.08)
				(name "6Y"
					(effects
						(font
							(size 1.27 1.27)
						)
					)
				)
				(number "12"
					(effects
						(font
							(size 1.27 1.27)
						)
					)
				)
			)
			(pin passive line
				(at 25.4 -2.54 180)
				(length 5.08)
				(name "6A"
					(effects
						(font
							(size 1.27 1.27)
						)
					)
				)
				(number "13"
					(effects
						(font
							(size 1.27 1.27)
						)
					)
				)
			)
			(pin passive line
				(at 25.4 0 180)
				(length 5.08)
				(name "VCC"
					(effects
						(font
							(size 1.27 1.27)
						)
					)
				)
				(number "14"
					(effects
						(font
							(size 1.27 1.27)
						)
					)
				)
			)
			(pin passive line
				(at 0 -2.54 0)
				(length 5.08)
				(name "1Y"
					(effects
						(font
							(size 1.27 1.27)
						)
					)
				)
				(number "2"
					(effects
						(font
							(size 1.27 1.27)
						)
					)
				)
			)
			(pin passive line
				(at 0 -5.08 0)
				(length 5.08)
				(name "2A"
					(effects
						(font
							(size 1.27 1.27)
						)
					)
				)
				(number "3"
					(effects
						(font
							(size 1.27 1.27)
						)
					)
				)
			)
			(pin passive line
				(at 0 -7.62 0)
				(length 5.08)
				(name "2Y"
					(effects
						(font
							(size 1.27 1.27)
						)
					)
				)
				(number "4"
					(effects
						(font
							(size 1.27 1.27)
						)
					)
				)
			)
			(pin passive line
				(at 0 -10.16 0)
				(length 5.08)
				(name "3A"
					(effects
						(font
							(size 1.27 1.27)
						)
					)
				)
				(number "5"
					(effects
						(font
							(size 1.27 1.27)
						)
					)
				)
			)
			(pin passive line
				(at 0 -12.7 0)
				(length 5.08)
				(name "3Y"
					(effects
						(font
							(size 1.27 1.27)
						)
					)
				)
				(number "6"
					(effects
						(font
							(size 1.27 1.27)
						)
					)
				)
			)
			(pin passive line
				(at 0 -15.24 0)
				(length 5.08)
				(name "GND"
					(effects
						(font
							(size 1.27 1.27)
						)
					)
				)
				(number "7"
					(effects
						(font
							(size 1.27 1.27)
						)
					)
				)
			)
			(pin passive line
				(at 25.4 -15.24 180)
				(length 5.08)
				(name "4Y"
					(effects
						(font
							(size 1.27 1.27)
						)
					)
				)
				(number "8"
					(effects
						(font
							(size 1.27 1.27)
						)
					)
				)
			)
			(pin passive line
				(at 25.4 -12.7 180)
				(length 5.08)
				(name "4A"
					(effects
						(font
							(size 1.27 1.27)
						)
					)
				)
				(number "9"
					(effects
						(font
							(size 1.27 1.27)
						)
					)
				)
			)
		)
	)
	(symbol "SN74HC08N"
		(exclude_from_sim no)
		(in_bom yes)
		(on_board yes)
		(property "Reference" "IC"
			(at 21.59 7.62 0)
			(effects
				(font
					(size 1.27 1.27)
				)
				(justify left top)
			)
		)
		(property "Value" "SN74HC08N"
			(at 21.59 5.08 0)
			(effects
				(font
					(size 1.27 1.27)
				)
				(justify left top)
			)
		)
		(property "Footprint" "DIP794W53P254L1930H508Q14N"
			(at 21.59 -94.92 0)
			(effects
				(font
					(size 1.27 1.27)
				)
				(justify left top)
				(hide yes)
			)
		)
		(property "Datasheet" "http://componentsearchengine.com/Datasheets/1/SN74HC08N.pdf"
			(at 21.59 -194.92 0)
			(effects
				(font
					(size 1.27 1.27)
				)
				(justify left top)
				(hide yes)
			)
		)
		(property "Description" "QUADRUPLE 2-INPUT POSITIVE-NOR GATES"
			(at 0 0 0)
			(effects
				(font
					(size 1.27 1.27)
				)
				(hide yes)
			)
		)
		(property "Height" "5.08"
			(at 21.59 -394.92 0)
			(effects
				(font
					(size 1.27 1.27)
				)
				(justify left top)
				(hide yes)
			)
		)
		(property "TME Electronic Components Part Number" ""
			(at 21.59 -494.92 0)
			(effects
				(font
					(size 1.27 1.27)
				)
				(justify left top)
				(hide yes)
			)
		)
		(property "TME Electronic Components Price/Stock" ""
			(at 21.59 -594.92 0)
			(effects
				(font
					(size 1.27 1.27)
				)
				(justify left top)
				(hide yes)
			)
		)
		(property "Manufacturer_Name" "Texas Instruments"
			(at 21.59 -694.92 0)
			(effects
				(font
					(size 1.27 1.27)
				)
				(justify left top)
				(hide yes)
			)
		)
		(property "Manufacturer_Part_Number" "SN74HC08N"
			(at 21.59 -794.92 0)
			(effects
				(font
					(size 1.27 1.27)
				)
				(justify left top)
				(hide yes)
			)
		)
		(symbol "SN74HC08N_1_1"
			(rectangle
				(start 5.08 2.54)
				(end 20.32 -17.78)
				(stroke
					(width 0.254)
					(type default)
				)
				(fill
					(type background)
				)
			)
			(pin passive line
				(at 0 0 0)
				(length 5.08)
				(name "1A"
					(effects
						(font
							(size 1.27 1.27)
						)
					)
				)
				(number "1"
					(effects
						(font
							(size 1.27 1.27)
						)
					)
				)
			)
			(pin passive line
				(at 25.4 -10.16 180)
				(length 5.08)
				(name "3B"
					(effects
						(font
							(size 1.27 1.27)
						)
					)
				)
				(number "10"
					(effects
						(font
							(size 1.27 1.27)
						)
					)
				)
			)
			(pin passive line
				(at 25.4 -7.62 180)
				(length 5.08)
				(name "4Y"
					(effects
						(font
							(size 1.27 1.27)
						)
					)
				)
				(number "11"
					(effects
						(font
							(size 1.27 1.27)
						)
					)
				)
			)
			(pin passive line
				(at 25.4 -5.08 180)
				(length 5.08)
				(name "4A"
					(effects
						(font
							(size 1.27 1.27)
						)
					)
				)
				(number "12"
					(effects
						(font
							(size 1.27 1.27)
						)
					)
				)
			)
			(pin passive line
				(at 25.4 -2.54 180)
				(length 5.08)
				(name "4B"
					(effects
						(font
							(size 1.27 1.27)
						)
					)
				)
				(number "13"
					(effects
						(font
							(size 1.27 1.27)
						)
					)
				)
			)
			(pin passive line
				(at 25.4 0 180)
				(length 5.08)
				(name "VCC"
					(effects
						(font
							(size 1.27 1.27)
						)
					)
				)
				(number "14"
					(effects
						(font
							(size 1.27 1.27)
						)
					)
				)
			)
			(pin passive line
				(at 0 -2.54 0)
				(length 5.08)
				(name "1B"
					(effects
						(font
							(size 1.27 1.27)
						)
					)
				)
				(number "2"
					(effects
						(font
							(size 1.27 1.27)
						)
					)
				)
			)
			(pin passive line
				(at 0 -5.08 0)
				(length 5.08)
				(name "1Y"
					(effects
						(font
							(size 1.27 1.27)
						)
					)
				)
				(number "3"
					(effects
						(font
							(size 1.27 1.27)
						)
					)
				)
			)
			(pin passive line
				(at 0 -7.62 0)
				(length 5.08)
				(name "2A"
					(effects
						(font
							(size 1.27 1.27)
						)
					)
				)
				(number "4"
					(effects
						(font
							(size 1.27 1.27)
						)
					)
				)
			)
			(pin passive line
				(at 0 -10.16 0)
				(length 5.08)
				(name "2B"
					(effects
						(font
							(size 1.27 1.27)
						)
					)
				)
				(number "5"
					(effects
						(font
							(size 1.27 1.27)
						)
					)
				)
			)
			(pin passive line
				(at 0 -12.7 0)
				(length 5.08)
				(name "2Y"
					(effects
						(font
							(size 1.27 1.27)
						)
					)
				)
				(number "6"
					(effects
						(font
							(size 1.27 1.27)
						)
					)
				)
			)
			(pin passive line
				(at 0 -15.24 0)
				(length 5.08)
				(name "GND"
					(effects
						(font
							(size 1.27 1.27)
						)
					)
				)
				(number "7"
					(effects
						(font
							(size 1.27 1.27)
						)
					)
				)
			)
			(pin passive line
				(at 25.4 -15.24 180)
				(length 5.08)
				(name "3Y"
					(effects
						(font
							(size 1.27 1.27)
						)
					)
				)
				(number "8"
					(effects
						(font
							(size 1.27 1.27)
						)
					)
				)
			)
			(pin passive line
				(at 25.4 -12.7 180)
				(length 5.08)
				(name "3A"
					(effects
						(font
							(size 1.27 1.27)
						)
					)
				)
				(number "9"
					(effects
						(font
							(size 1.27 1.27)
						)
					)
				)
			)
		)
	)
	(symbol "SN74HC32N"
		(exclude_from_sim no)
		(in_bom yes)
		(on_board yes)
		(property "Reference" "IC"
			(at 21.59 7.62 0)
			(effects
				(font
					(size 1.27 1.27)
				)
				(justify left top)
			)
		)
		(property "Value" "SN74HC32N"
			(at 21.59 5.08 0)
			(effects
				(font
					(size 1.27 1.27)
				)
				(justify left top)
			)
		)
		(property "Footprint" "DIP794W53P254L1930H508Q14N"
			(at 21.59 -94.92 0)
			(effects
				(font
					(size 1.27 1.27)
				)
				(justify left top)
				(hide yes)
			)
		)
		(property "Datasheet" "http://www.ti.com/lit/gpn/sn74hc32"
			(at 21.59 -194.92 0)
			(effects
				(font
					(size 1.27 1.27)
				)
				(justify left top)
				(hide yes)
			)
		)
		(property "Description" "QUADRUPLE 2-INPUT POSITIVE-OR GATES"
			(at 0 0 0)
			(effects
				(font
					(size 1.27 1.27)
				)
				(hide yes)
			)
		)
		(property "Height" "5.08"
			(at 21.59 -394.92 0)
			(effects
				(font
					(size 1.27 1.27)
				)
				(justify left top)
				(hide yes)
			)
		)
		(property "TME Electronic Components Part Number" ""
			(at 21.59 -494.92 0)
			(effects
				(font
					(size 1.27 1.27)
				)
				(justify left top)
				(hide yes)
			)
		)
		(property "TME Electronic Components Price/Stock" ""
			(at 21.59 -594.92 0)
			(effects
				(font
					(size 1.27 1.27)
				)
				(justify left top)
				(hide yes)
			)
		)
		(property "Manufacturer_Name" "Texas Instruments"
			(at 21.59 -694.92 0)
			(effects
				(font
					(size 1.27 1.27)
				)
				(justify left top)
				(hide yes)
			)
		)
		(property "Manufacturer_Part_Number" "SN74HC32N"
			(at 21.59 -794.92 0)
			(effects
				(font
					(size 1.27 1.27)
				)
				(justify left top)
				(hide yes)
			)
		)
		(symbol "SN74HC32N_1_1"
			(rectangle
				(start 5.08 2.54)
				(end 20.32 -17.78)
				(stroke
					(width 0.254)
					(type default)
				)
				(fill
					(type background)
				)
			)
			(pin passive line
				(at 0 0 0)
				(length 5.08)
				(name "1A"
					(effects
						(font
							(size 1.27 1.27)
						)
					)
				)
				(number "1"
					(effects
						(font
							(size 1.27 1.27)
						)
					)
				)
			)
			(pin passive line
				(at 25.4 -10.16 180)
				(length 5.08)
				(name "3B"
					(effects
						(font
							(size 1.27 1.27)
						)
					)
				)
				(number "10"
					(effects
						(font
							(size 1.27 1.27)
						)
					)
				)
			)
			(pin passive line
				(at 25.4 -7.62 180)
				(length 5.08)
				(name "4Y"
					(effects
						(font
							(size 1.27 1.27)
						)
					)
				)
				(number "11"
					(effects
						(font
							(size 1.27 1.27)
						)
					)
				)
			)
			(pin passive line
				(at 25.4 -5.08 180)
				(length 5.08)
				(name "4A"
					(effects
						(font
							(size 1.27 1.27)
						)
					)
				)
				(number "12"
					(effects
						(font
							(size 1.27 1.27)
						)
					)
				)
			)
			(pin passive line
				(at 25.4 -2.54 180)
				(length 5.08)
				(name "4B"
					(effects
						(font
							(size 1.27 1.27)
						)
					)
				)
				(number "13"
					(effects
						(font
							(size 1.27 1.27)
						)
					)
				)
			)
			(pin passive line
				(at 25.4 0 180)
				(length 5.08)
				(name "VCC"
					(effects
						(font
							(size 1.27 1.27)
						)
					)
				)
				(number "14"
					(effects
						(font
							(size 1.27 1.27)
						)
					)
				)
			)
			(pin passive line
				(at 0 -2.54 0)
				(length 5.08)
				(name "1B"
					(effects
						(font
							(size 1.27 1.27)
						)
					)
				)
				(number "2"
					(effects
						(font
							(size 1.27 1.27)
						)
					)
				)
			)
			(pin passive line
				(at 0 -5.08 0)
				(length 5.08)
				(name "1Y"
					(effects
						(font
							(size 1.27 1.27)
						)
					)
				)
				(number "3"
					(effects
						(font
							(size 1.27 1.27)
						)
					)
				)
			)
			(pin passive line
				(at 0 -7.62 0)
				(length 5.08)
				(name "2A"
					(effects
						(font
							(size 1.27 1.27)
						)
					)
				)
				(number "4"
					(effects
						(font
							(size 1.27 1.27)
						)
					)
				)
			)
			(pin passive line
				(at 0 -10.16 0)
				(length 5.08)
				(name "2B"
					(effects
						(font
							(size 1.27 1.27)
						)
					)
				)
				(number "5"
					(effects
						(font
							(size 1.27 1.27)
						)
					)
				)
			)
			(pin passive line
				(at 0 -12.7 0)
				(length 5.08)
				(name "2Y"
					(effects
						(font
							(size 1.27 1.27)
						)
					)
				)
				(number "6"
					(effects
						(font
							(size 1.27 1.27)
						)
					)
				)
			)
			(pin passive line
				(at 0 -15.24 0)
				(length 5.08)
				(name "GND"
					(effects
						(font
							(size 1.27 1.27)
						)
					)
				)
				(number "7"
					(effects
						(font
							(size 1.27 1.27)
						)
					)
				)
			)
			(pin passive line
				(at 25.4 -15.24 180)
				(length 5.08)
				(name "3Y"
					(effects
						(font
							(size 1.27 1.27)
						)
					)
				)
				(number "8"
					(effects
						(font
							(size 1.27 1.27)
						)
					)
				)
			)
			(pin passive line
				(at 25.4 -12.7 180)
				(length 5.08)
				(name "3A"
					(effects
						(font
							(size 1.27 1.27)
						)
					)
				)
				(number "9"
					(effects
						(font
							(size 1.27 1.27)
						)
					)
				)
			)
		)
	)
)
