PCBNEW-LibModule-V1  2024-03-16 19:26:47
# encoding utf-8
Units mm
$INDEX
DS109204B6P
$EndINDEX
$MODULE DS109204B6P
Po 0 0 0 15 65f5f277 00000000 ~~
Li DS109204B6P
Cd DS1092-04-B6P-1
Kw Hardware
Sc 0
At STD
AR 
Op 0 0 0
T0 9.300 -0 1.27 1.27 0 0.254 N V 21 N "H**"
T1 9.300 -0 1.27 1.27 0 0.254 N I 21 N "DS109204B6P"
DS -3.85 -12.05 22.45 -12.05 0.1 24
DS 22.45 -12.05 22.45 12.05 0.1 24
DS 22.45 12.05 -3.85 12.05 0.1 24
DS -3.85 12.05 -3.85 -12.05 0.1 24
DS 8.2 11.05 8.2 11.05 0.1 24
DS 8.2 -11.05 8.2 -11.05 0.1 24
DS 8.476 11.05 8.2 11.05 0.2 21
DS 8.2 11.05 8.2 11.05 0.2 21
DS 8.476 -11.05 8.2 -11.05 0.2 21
DS 8.2 -11.05 8.2 -11.05 0.2 21
DS 7.924 11.05 8.2 11.05 0.2 21
DS 8.2 11.05 8.2 11.05 0.2 21
DS 7.924 -11.05 8.2 -11.05 0.2 21
DS 8.2 -11.05 8.2 -11.05 0.2 21
DS 18.5 3.75 21.45 3.75 0.1 24
DS 21.45 3.75 21.45 -3.75 0.1 24
DS 21.45 -3.75 18.5 -3.75 0.1 24
DS 18.5 -3.75 21.45 -3.75 0.2 21
DS 21.45 -3.75 21.45 3.75 0.2 21
DS 21.45 3.75 18.5 3.75 0.2 21
DS -3.4 -0 -3.4 -0 0.1 21
DS -3.5 -0 -3.5 -0 0.1 21
DA 8.2 -0 8.200 11.05 -1800 0.1 24
DA 8.2 -0 8.200 -11.05 -1800 0.1 24
DA 8.2 -0 8.200 11.05 900 0.2 21
DA 8.2 -0 8.200 -11.05 -900 0.2 21
DA 8.2 -0.0090000000000003 8.200 11.05 -770 0.2 21
DA 8.2 0.0089999999999986 8.200 -11.05 770 0.2 21
DA -3.45 -0 -3.400 -0 -1800 0.1 21
DA -3.45 -0 -3.500 -0 -1800 0.1 21
$PAD
Po 0.000 -0
Sh "1" R 1.950 1.950 0 0 900
Dr 1.3 0 0
At STD N 00E0FFFF
Ne 0 ""
$EndPAD
$PAD
Po 20.000 -0
Sh "2" C 1.950 1.950 0 0 900
Dr 1.3 0 0
At STD N 00E0FFFF
Ne 0 ""
$EndPAD
$EndMODULE DS109204B6P
$EndLIBRARY
