(footprint "CMOS_OR"
	(version 20240108)
	(generator "pcbnew")
	(generator_version "8.0")
	(layer "F.Cu")
	(property "Reference" "REF**"
		(at -2.05 -1.68 0)
		(unlocked yes)
		(layer "F.SilkS")
		(hide yes)
		(uuid "4f0937f5-9218-4fd4-ac78-2377aae502af")
		(effects
			(font
				(size 1 1)
				(thickness 0.1)
			)
		)
	)
	(property "Value" "CMOS_OR"
		(at -1.88 3.23 0)
		(unlocked yes)
		(layer "F.Fab")
		(hide yes)
		(uuid "0683d304-8fa6-4c3e-9c06-eb1332f93506")
		(effects
			(font
				(size 1 1)
				(thickness 0.15)
			)
		)
	)
	(property "Footprint" "CMOS_OR"
		(at -4.17 -0.01 0)
		(unlocked yes)
		(layer "F.Fab")
		(hide yes)
		(uuid "5c0f2a76-5ec4-4f3f-92db-7aa6a55c74b2")
		(effects
			(font
				(size 1 1)
				(thickness 0.15)
			)
		)
	)
	(property "Datasheet" ""
		(at -12.37 0.015 0)
		(unlocked yes)
		(layer "F.Fab")
		(hide yes)
		(uuid "7b1f0204-a7b9-49bf-b876-a089390cb3cc")
		(effects
			(font
				(size 1 1)
				(thickness 0.15)
			)
		)
	)
	(property "Description" ""
		(at -12.37 0.015 0)
		(unlocked yes)
		(layer "F.Fab")
		(hide yes)
		(uuid "d01c3760-b5ea-4158-aa24-b97d2407a275")
		(effects
			(font
				(size 1 1)
				(thickness 0.15)
			)
		)
	)
	(fp_line
		(start -20.36 -6.34)
		(end -12.360001 -6.335113)
		(stroke
			(width 0.2)
			(type default)
		)
		(layer "F.SilkS")
		(uuid "64ec6200-5091-41f8-8e9a-544f3e8657bb")
	)
	(fp_line
		(start -20.325 6.185)
		(end -12.325001 6.189887)
		(stroke
			(width 0.2)
			(type default)
		)
		(layer "F.SilkS")
		(uuid "a7ff31e8-006e-4449-aff3-cfeab85e0367")
	)
	(fp_line
		(start -12.360001 -6.335113)
		(end -9.075 -6.335)
		(stroke
			(width 0.2)
			(type default)
		)
		(layer "F.SilkS")
		(uuid "ddbc08c5-2039-4f19-934c-86f2165eb231")
	)
	(fp_line
		(start -12.3225 6.189944)
		(end -9.037499 6.190057)
		(stroke
			(width 0.2)
			(type default)
		)
		(layer "F.SilkS")
		(uuid "283fc74e-9f35-4da6-b095-7b15b09edbea")
	)
	(fp_line
		(start 0.34 -12.545)
		(end -12.16 -12.545)
		(stroke
			(width 0.5)
			(type default)
		)
		(layer "F.SilkS")
		(uuid "9ef1e97b-6bdc-4986-9082-1f768099732e")
	)
	(fp_line
		(start 0.34 12.455)
		(end -12.16 12.455)
		(stroke
			(width 0.5)
			(type default)
		)
		(layer "F.SilkS")
		(uuid "86c1692a-c67b-4874-8ac3-3954041ba75c")
	)
	(fp_line
		(start 12.84 -0.045)
		(end 20.839999 -0.040113)
		(stroke
			(width 0.2)
			(type default)
		)
		(layer "F.SilkS")
		(uuid "f1d5617a-bd74-4455-a7cd-4059c2b92758")
	)
	(fp_arc
		(start -12.16 -12.545)
		(mid -8.228678 -0.046807)
		(end -12.16939 12.448428)
		(stroke
			(width 0.5)
			(type default)
		)
		(layer "F.SilkS")
		(uuid "cea4f4de-3061-4935-a120-2d94bcab0ba1")
	)
	(fp_arc
		(start 0.34 -12.545)
		(mid 12.84 -0.045)
		(end 0.34 12.455)
		(stroke
			(width 0.5)
			(type default)
		)
		(layer "F.SilkS")
		(uuid "19827819-88ee-4170-80e6-83bbc5bf88d1")
	)
	(fp_circle
		(center -21.16 -6.34)
		(end -20.41 -6.34)
		(stroke
			(width 0.1)
			(type default)
		)
		(fill none)
		(layer "F.SilkS")
		(uuid "90b54197-b4a7-4ef5-8339-6e4514dcc8c5")
	)
	(fp_circle
		(center -21.11 6.185)
		(end -20.36 6.185)
		(stroke
			(width 0.1)
			(type default)
		)
		(fill none)
		(layer "F.SilkS")
		(uuid "a31b5470-fbe5-48a3-9fe7-c041ab2a4dc7")
	)
	(fp_circle
		(center 21.64 -0.055)
		(end 22.39 -0.055)
		(stroke
			(width 0.1)
			(type default)
		)
		(fill none)
		(layer "F.SilkS")
		(uuid "6f832ab1-3260-400a-97be-9a7e6ebfdff5")
	)
)
