(footprint "JF15SP1F"
	(version 20240108)
	(generator "pcbnew")
	(generator_version "8.0")
	(layer "F.Cu")
	(descr "JF15SP1F-2")
	(tags "Switch")
	(property "Reference" "S**"
		(at -5.08 6.35 0)
		(layer "F.SilkS")
		(uuid "635af7aa-f033-4fc8-876d-47f55594b34b")
		(effects
			(font
				(size 1.27 1.27)
				(thickness 0.254)
			)
		)
	)
	(property "Value" "JF15SP1F"
		(at -5.08 6.35 0)
		(layer "F.SilkS")
		(hide yes)
		(uuid "d5cbe2bc-69cb-4280-9525-dcd239871f19")
		(effects
			(font
				(size 1.27 1.27)
				(thickness 0.254)
			)
		)
	)
	(property "Footprint" "JF15SP1F"
		(at 0 0 0)
		(unlocked yes)
		(layer "F.Fab")
		(hide yes)
		(uuid "6bc09d4e-fae3-48c1-937f-8173aa33eabf")
		(effects
			(font
				(size 1.27 1.27)
			)
		)
	)
	(property "Datasheet" ""
		(at 0 0 0)
		(unlocked yes)
		(layer "F.Fab")
		(hide yes)
		(uuid "53cb4750-dc34-4c9d-911f-ada496ca8e9d")
		(effects
			(font
				(size 1.27 1.27)
			)
		)
	)
	(property "Description" ""
		(at 0 0 0)
		(unlocked yes)
		(layer "F.Fab")
		(hide yes)
		(uuid "cff6c29e-8221-4280-8065-2b371f0072cf")
		(effects
			(font
				(size 1.27 1.27)
			)
		)
	)
	(attr through_hole)
	(fp_line
		(start -13.93 -2.5)
		(end 3.77 -2.5)
		(stroke
			(width 0.2)
			(type solid)
		)
		(layer "F.SilkS")
		(uuid "9c74a293-1e84-46c9-b897-02ec2578a1c1")
	)
	(fp_line
		(start -13.93 15.2)
		(end -13.93 -2.5)
		(stroke
			(width 0.2)
			(type solid)
		)
		(layer "F.SilkS")
		(uuid "7d43f6ea-a751-4fbe-9a49-10d9f6ea9ca1")
	)
	(fp_line
		(start 3.77 -2.5)
		(end 3.77 15.2)
		(stroke
			(width 0.2)
			(type solid)
		)
		(layer "F.SilkS")
		(uuid "22cd95ef-6744-412d-bf9f-2db3ae0a5da8")
	)
	(fp_line
		(start 3.77 15.2)
		(end -13.93 15.2)
		(stroke
			(width 0.2)
			(type solid)
		)
		(layer "F.SilkS")
		(uuid "8d16693e-0b0c-431d-991e-4903f5b9b9c5")
	)
	(fp_line
		(start 4.3 0)
		(end 4.3 0)
		(stroke
			(width 0.1)
			(type solid)
		)
		(layer "F.SilkS")
		(uuid "d6c54864-01f4-4554-a38c-e0359e65598b")
	)
	(fp_line
		(start 4.4 0)
		(end 4.4 0)
		(stroke
			(width 0.1)
			(type solid)
		)
		(layer "F.SilkS")
		(uuid "8a52d562-9b19-4c56-8b38-051d04c4d9b8")
	)
	(fp_arc
		(start 4.3 0)
		(mid 4.35 -0.05)
		(end 4.4 0)
		(stroke
			(width 0.1)
			(type solid)
		)
		(layer "F.SilkS")
		(uuid "56534e52-86e4-4028-ba44-f59bf0e2daae")
	)
	(fp_arc
		(start 4.4 0)
		(mid 4.35 0.05)
		(end 4.3 0)
		(stroke
			(width 0.1)
			(type solid)
		)
		(layer "F.SilkS")
		(uuid "3b3ccb18-43cd-4dc4-8f6a-f1022fb624a3")
	)
	(fp_line
		(start -14.93 -3.5)
		(end 4.77 -3.5)
		(stroke
			(width 0.1)
			(type solid)
		)
		(layer "F.CrtYd")
		(uuid "f4d3fdf2-cf46-4c4e-9c40-bfe4eea7a4b2")
	)
	(fp_line
		(start -14.93 16.2)
		(end -14.93 -3.5)
		(stroke
			(width 0.1)
			(type solid)
		)
		(layer "F.CrtYd")
		(uuid "abeb1700-d9e5-4118-a763-e76fe1ea2347")
	)
	(fp_line
		(start 4.77 -3.5)
		(end 4.77 16.2)
		(stroke
			(width 0.1)
			(type solid)
		)
		(layer "F.CrtYd")
		(uuid "d0d08af1-be7c-4ac0-9ab7-ae82bc0c677b")
	)
	(fp_line
		(start 4.77 16.2)
		(end -14.93 16.2)
		(stroke
			(width 0.1)
			(type solid)
		)
		(layer "F.CrtYd")
		(uuid "b4fbef0b-57b5-4038-b509-41c1c65580d1")
	)
	(fp_line
		(start -13.93 -2.5)
		(end 3.77 -2.5)
		(stroke
			(width 0.1)
			(type solid)
		)
		(layer "F.Fab")
		(uuid "d14c98ac-5858-4868-be04-827ae699c9b8")
	)
	(fp_line
		(start -13.93 15.2)
		(end -13.93 -2.5)
		(stroke
			(width 0.1)
			(type solid)
		)
		(layer "F.Fab")
		(uuid "2039a875-5aa8-4d7c-a4df-c54fcb5be6dd")
	)
	(fp_line
		(start 3.77 -2.5)
		(end 3.77 15.2)
		(stroke
			(width 0.1)
			(type solid)
		)
		(layer "F.Fab")
		(uuid "fd400141-3051-47da-8019-4b1ed697d21d")
	)
	(fp_line
		(start 3.77 15.2)
		(end -13.93 15.2)
		(stroke
			(width 0.1)
			(type solid)
		)
		(layer "F.Fab")
		(uuid "356ecd1f-8497-438b-a109-c5265be231db")
	)
	(fp_text user "${REFERENCE}"
		(at -5.08 6.35 0)
		(layer "F.Fab")
		(uuid "d75f6f0c-acf7-42ee-8513-c5f82be043ca")
		(effects
			(font
				(size 1.27 1.27)
				(thickness 0.254)
			)
		)
	)
	(pad "1" thru_hole rect
		(at 0 0)
		(size 1.5 1.5)
		(drill 1)
		(layers "*.Cu" "*.Mask")
		(remove_unused_layers no)
		(uuid "04101a52-6222-404e-8c00-09368a86f116")
	)
	(pad "2" thru_hole circle
		(at 0 12.7)
		(size 1.5 1.5)
		(drill 1)
		(layers "*.Cu" "*.Mask")
		(remove_unused_layers no)
		(uuid "5241ca94-10de-478c-a6ec-54ecb675e1d2")
	)
	(pad "3" thru_hole circle
		(at -10.16 0)
		(size 1.5 1.5)
		(drill 1)
		(layers "*.Cu" "*.Mask")
		(remove_unused_layers no)
		(uuid "f9a8f9bc-ed00-4f53-9317-47dd21111d98")
	)
	(pad "4" thru_hole circle
		(at -10.16 12.7)
		(size 1.5 1.5)
		(drill 1)
		(layers "*.Cu" "*.Mask")
		(remove_unused_layers no)
		(uuid "c2aa91a8-015a-47d3-859b-dd9621738285")
	)
	(model "JF15SP1F.stp"
		(offset
			(xyz 0 0 0)
		)
		(scale
			(xyz 1 1 1)
		)
		(rotate
			(xyz 0 0 0)
		)
	)
)
