M48
; DRILL file {KiCad 8.0.2} date 2024-05-14T01:38:07+0200
; FORMAT={-:-/ absolute / metric / decimal}
; #@! TF.CreationDate,2024-05-14T01:38:07+02:00
; #@! TF.GenerationSoftware,Kicad,Pcbnew,8.0.2
; #@! TF.FileFunction,Plated,1,2,PTH
FMAT,2
METRIC
; #@! TA.AperFunction,Plated,PTH,ComponentDrill
T1C0.730
; #@! TA.AperFunction,Plated,PTH,ComponentDrill
T2C0.800
; #@! TA.AperFunction,Plated,PTH,ComponentDrill
T3C0.900
; #@! TA.AperFunction,Plated,PTH,ComponentDrill
T4C1.000
; #@! TA.AperFunction,Plated,PTH,ComponentDrill
T5C3.500
%
G90
G05
T1
X142.91Y-88.496
X142.91Y-91.036
X142.91Y-93.576
X142.91Y-96.116
X142.91Y-98.656
X142.91Y-101.196
X142.91Y-103.736
X150.85Y-88.496
X150.85Y-91.036
X150.85Y-93.576
X150.85Y-96.116
X150.85Y-98.656
X150.85Y-101.196
X150.85Y-103.736
T2
X131.425Y-84.04
X131.425Y-94.2
X131.425Y-96.32
X131.425Y-106.48
X144.85Y-73.9
X144.85Y-75.9
X162.35Y-91.066
X162.35Y-101.226
T3
X121.3Y-102.425
X121.3Y-105.625
X121.325Y-108.825
X121.475Y-80.7
X121.475Y-83.9
X121.5Y-87.1
X170.2Y-94.706
X170.2Y-97.246
T4
X127.85Y-88.225
X127.85Y-90.765
X127.925Y-100.95
X127.925Y-103.49
X149.775Y-73.51
X149.775Y-76.05
X168.175Y-90.85
X170.715Y-90.85
T5
X116.8Y-66.046
X116.8Y-126.046
X176.8Y-66.046
X176.8Y-126.096
M30
