<?xml version="1.0" encoding="utf-8"?>
<!--/181922/347625/2.50/14/3/Integrated Circuit/-->
<!DOCTYPE curve SYSTEM "eagle.dtd">
<eagle version="7.7.0">
<drawing>
<settings>
<setting alwaysvectorfont="no"/>
<setting verticaltext="up"/>
</settings>
<grid distance="0.1" unitdist="inch" unit="inch" style="lines" multiple="1" display="no" altdistance="0.01" altunitdist="inch" altunit="inch"/>
<layers>
<layer number="1" name="Top" color="4" fill="1" visible="yes" active="yes"/>
<layer number="16" name="Bottom" color="1" fill="1" visible="yes" active="yes"/>
<layer number="17" name="Pads" color="2" fill="1" visible="yes" active="yes"/>
<layer number="18" name="Vias" color="2" fill="1" visible="yes" active="yes"/>
<layer number="19" name="Unrouted" color="6" fill="1" visible="yes" active="yes"/>
<layer number="20" name="Dimension" color="15" fill="1" visible="yes" active="yes"/>
<layer number="21" name="tPlace" color="7" fill="1" visible="yes" active="yes"/>
<layer number="22" name="bPlace" color="7" fill="1" visible="yes" active="yes"/>
<layer number="23" name="tOrigins" color="15" fill="1" visible="yes" active="yes"/>
<layer number="24" name="bOrigins" color="15" fill="1" visible="yes" active="yes"/>
<layer number="25" name="tNames" color="7" fill="1" visible="yes" active="yes"/>
<layer number="26" name="bNames" color="7" fill="1" visible="yes" active="yes"/>
<layer number="27" name="tValues" color="7" fill="1" visible="yes" active="yes"/>
<layer number="28" name="bValues" color="7" fill="1" visible="yes" active="yes"/>
<layer number="29" name="tStop" color="7" fill="3" visible="no" active="yes"/>
<layer number="30" name="bStop" color="7" fill="6" visible="no" active="yes"/>
<layer number="31" name="tCream" color="7" fill="4" visible="no" active="yes"/>
<layer number="32" name="bCream" color="7" fill="5" visible="no" active="yes"/>
<layer number="33" name="tFinish" color="6" fill="3" visible="no" active="yes"/>
<layer number="34" name="bFinish" color="6" fill="6" visible="no" active="yes"/>
<layer number="35" name="tGlue" color="7" fill="4" visible="no" active="yes"/>
<layer number="36" name="bGlue" color="7" fill="5" visible="no" active="yes"/>
<layer number="37" name="tTest" color="7" fill="1" visible="no" active="yes"/>
<layer number="38" name="bTest" color="7" fill="1" visible="no" active="yes"/>
<layer number="39" name="tKeepout" color="4" fill="11" visible="yes" active="yes"/>
<layer number="40" name="bKeepout" color="1" fill="11" visible="yes" active="yes"/>
<layer number="41" name="tRestrict" color="4" fill="10" visible="yes" active="yes"/>
<layer number="42" name="bRestrict" color="1" fill="10" visible="yes" active="yes"/>
<layer number="43" name="vRestrict" color="2" fill="10" visible="yes" active="yes"/>
<layer number="44" name="Drills" color="7" fill="1" visible="no" active="yes"/>
<layer number="45" name="Holes" color="7" fill="1" visible="no" active="yes"/>
<layer number="46" name="Milling" color="3" fill="1" visible="no" active="yes"/>
<layer number="47" name="Measures" color="7" fill="1" visible="no" active="yes"/>
<layer number="48" name="Document" color="7" fill="1" visible="yes" active="yes"/>
<layer number="49" name="Reference" color="7" fill="1" visible="yes" active="yes"/>
<layer number="51" name="tDocu" color="7" fill="1" visible="yes" active="yes"/>
<layer number="52" name="bDocu" color="7" fill="1" visible="yes" active="yes"/>
<layer number="90" name="Modules" color="5" fill="1" visible="yes" active="yes"/>
<layer number="91" name="Nets" color="2" fill="1" visible="yes" active="yes"/>
<layer number="92" name="Busses" color="1" fill="1" visible="yes" active="yes"/>
<layer number="93" name="Pins" color="2" fill="1" visible="no" active="yes"/>
<layer number="94" name="Symbols" color="4" fill="1" visible="yes" active="yes"/>
<layer number="95" name="Names" color="7" fill="1" visible="yes" active="yes"/>
<layer number="96" name="Values" color="7" fill="1" visible="yes" active="yes"/>
<layer number="97" name="Info" color="7" fill="1" visible="yes" active="yes"/>
<layer number="98" name="Guide" color="6" fill="1" visible="yes" active="yes"/>
</layers>
<library>
<description>&lt;IC,Logic, Hex Inverter,O/D O/Ps,74HC05&lt;/b&gt;&lt;p&gt;
&lt;author&gt;Created by SamacSys&lt;/author&gt;</description>
<packages>
<package name="DIP794W53P254L1930H508Q14N">
<description>&lt;b&gt;14 pdip n&lt;/b&gt;&lt;br&gt;
</description>
<pad name="1" x="-3.97" y="7.62" drill="0.73" diameter="1.13" shape="square"/>
<pad name="2" x="-3.97" y="5.08" drill="0.73" diameter="1.13"/>
<pad name="3" x="-3.97" y="2.54" drill="0.73" diameter="1.13"/>
<pad name="4" x="-3.97" y="0" drill="0.73" diameter="1.13"/>
<pad name="5" x="-3.97" y="-2.54" drill="0.73" diameter="1.13"/>
<pad name="6" x="-3.97" y="-5.08" drill="0.73" diameter="1.13"/>
<pad name="7" x="-3.97" y="-7.62" drill="0.73" diameter="1.13"/>
<pad name="8" x="3.97" y="-7.62" drill="0.73" diameter="1.13"/>
<pad name="9" x="3.97" y="-5.08" drill="0.73" diameter="1.13"/>
<pad name="10" x="3.97" y="-2.54" drill="0.73" diameter="1.13"/>
<pad name="11" x="3.97" y="0" drill="0.73" diameter="1.13"/>
<pad name="12" x="3.97" y="2.54" drill="0.73" diameter="1.13"/>
<pad name="13" x="3.97" y="5.08" drill="0.73" diameter="1.13"/>
<pad name="14" x="3.97" y="7.62" drill="0.73" diameter="1.13"/>
<text x="0" y="0" align="center" size="1.27" layer="25" rot="R0" >&gt;NAME</text>
<text x="0" y="0" align="center" size="1.27" layer="27" rot="R0" >&gt;VALUE</text>
<wire x1="-4.945" y1="10.095" x2="4.945" y2="10.095" width="0.05" layer="51"/>
<wire x1="4.945" y1="10.095" x2="4.945" y2="-10.095" width="0.05" layer="51"/>
<wire x1="4.945" y1="-10.095" x2="-4.945" y2="-10.095" width="0.05" layer="51"/>
<wire x1="-4.945" y1="-10.095" x2="-4.945" y2="10.095" width="0.05" layer="51"/>
<wire x1="-3.3" y1="9.845" x2="3.3" y2="9.845" width="0.1" layer="51"/>
<wire x1="3.3" y1="9.845" x2="3.3" y2="-9.845" width="0.1" layer="51"/>
<wire x1="3.3" y1="-9.845" x2="-3.3" y2="-9.845" width="0.1" layer="51"/>
<wire x1="-3.3" y1="-9.845" x2="-3.3" y2="9.845" width="0.1" layer="51"/>
<wire x1="-3.3" y1="8.575" x2="-2.03" y2="9.845" width="0.1" layer="51"/>
<wire x1="-4.535" y1="9.845" x2="3.3" y2="9.845" width="0.2" layer="21"/>
<wire x1="-3.3" y1="-9.845" x2="3.3" y2="-9.845" width="0.2" layer="21"/>
</package>
</packages>
<symbols>
<symbol name="SN74HC05N">
<wire x1="5.08" y1="2.54" x2="20.32" y2="2.54" width="0.254" layer="94"/>
<wire x1="20.32" y1="-17.78" x2="20.32" y2="2.54" width="0.254" layer="94"/>
<wire x1="20.32" y1="-17.78" x2="5.08" y2="-17.78" width="0.254" layer="94"/>
<wire x1="5.08" y1="2.54" x2="5.08" y2="-17.78" width="0.254" layer="94"/>
<text x="21.59" y="7.62" align="center-left" size="1.778" layer="95">&gt;NAME</text>
<text x="21.59" y="5.08" align="center-left" size="1.778" layer="96">&gt;VALUE</text>
<pin name="1A" x="0" y="0" length="middle" direction="io" rot="R0"/>
<pin name="1Y" x="0" y="-2.54" length="middle" direction="io" rot="R0"/>
<pin name="2A" x="0" y="-5.08" length="middle" direction="io" rot="R0"/>
<pin name="2Y" x="0" y="-7.62" length="middle" direction="io" rot="R0"/>
<pin name="3A" x="0" y="-10.16" length="middle" direction="io" rot="R0"/>
<pin name="3Y" x="0" y="-12.7" length="middle" direction="io" rot="R0"/>
<pin name="GND" x="0" y="-15.24" length="middle" direction="io" rot="R0"/>
<pin name="VCC" x="25.4" y="0" length="middle" direction="io" rot="R180"/>
<pin name="6A" x="25.4" y="-2.54" length="middle" direction="io" rot="R180"/>
<pin name="6Y" x="25.4" y="-5.08" length="middle" direction="io" rot="R180"/>
<pin name="5A" x="25.4" y="-7.62" length="middle" direction="io" rot="R180"/>
<pin name="5Y" x="25.4" y="-10.16" length="middle" direction="io" rot="R180"/>
<pin name="4A" x="25.4" y="-12.7" length="middle" direction="io" rot="R180"/>
<pin name="4Y" x="25.4" y="-15.24" length="middle" direction="io" rot="R180"/>
</symbol>
</symbols>
<devicesets>
<deviceset name="SN74HC05N" prefix="IC">
<description>&lt;b&gt;IC,Logic, Hex Inverter,O/D O/Ps,74HC05&lt;/b&gt;&lt;p&gt;
Source: &lt;a href="http://www.ti.com/lit/gpn/sn74hc05"&gt; Datasheet &lt;/a&gt;</description>
<gates>
<gate name="G$1" symbol="SN74HC05N" x="0" y="0"/>
</gates>
<devices>
<device name="" package="DIP794W53P254L1930H508Q14N">
<connects>
<connect gate="G$1" pin="1A" pad="1"/>
<connect gate="G$1" pin="1Y" pad="2"/>
<connect gate="G$1" pin="2A" pad="3"/>
<connect gate="G$1" pin="2Y" pad="4"/>
<connect gate="G$1" pin="3A" pad="5"/>
<connect gate="G$1" pin="3Y" pad="6"/>
<connect gate="G$1" pin="GND" pad="7"/>
<connect gate="G$1" pin="4Y" pad="8"/>
<connect gate="G$1" pin="4A" pad="9"/>
<connect gate="G$1" pin="5Y" pad="10"/>
<connect gate="G$1" pin="5A" pad="11"/>
<connect gate="G$1" pin="6Y" pad="12"/>
<connect gate="G$1" pin="6A" pad="13"/>
<connect gate="G$1" pin="VCC" pad="14"/>
</connects>
<technologies>
<technology name="">
<attribute name="TME_Electronic_Components_Part_Number" value="" constant="no"/>
<attribute name="TME_Electronic_Components_Price-Stock" value="" constant="no"/>
<attribute name="Manufacturer_Name" value="Texas Instruments" constant="no"/>
<attribute name="Manufacturer_Part_Number" value="SN74HC05N" constant="no"/>
<attribute name="Description" value="IC,Logic, Hex Inverter,O/D O/Ps,74HC05" constant="no"/>
<attribute name="Height" value="5.08mm" constant="no"/>
</technology>
</technologies>
</device>
</devices>
</deviceset>
</devicesets>
</library>
</drawing>
</eagle>
