PCBNEW-LibModule-V1  2024-03-28 23:22:11
# encoding utf-8
Units mm
$INDEX
SHDR6W64P254_2X3_1540X930X890P
$EndINDEX
$MODULE SHDR6W64P254_2X3_1540X930X890P
Po 0 0 0 15 6605fba3 00000000 ~~
Li SHDR6W64P254_2X3_1540X930X890P
Cd 09185067324
Kw Connector
Sc 0
At STD
AR 
Op 0 0 0
T0 0 0 1.27 1.27 0 0.254 N V 21 N "J**"
T1 0 0 1.27 1.27 0 0.254 N I 21 N "SHDR6W64P254_2X3_1540X930X890P"
DS -5.41 3.63 -5.41 -6.17 0.05 24
DS -5.41 -6.17 10.49 -6.17 0.05 24
DS 10.49 -6.17 10.49 3.63 0.05 24
DS 10.49 3.63 -5.41 3.63 0.05 24
DS -5.16 3.38 -5.16 -5.92 0.1 24
DS -5.16 -5.92 10.24 -5.92 0.1 24
DS 10.24 -5.92 10.24 3.38 0.1 24
DS 10.24 3.38 -5.16 3.38 0.1 24
DS 0 3.38 10.24 3.38 0.2 21
DS 10.24 3.38 10.24 -5.92 0.2 21
DS 10.24 -5.92 -5.16 -5.92 0.2 21
DS -5.16 -5.92 -5.16 0 0.2 21
$PAD
Po 0 0
Sh "1" R 1.65 1.65 0 0 900
Dr 1.1 0 0
At STD N 00E0FFFF
Ne 0 ""
$EndPAD
$PAD
Po 0 -2.54
Sh "2" C 1.65 1.65 0 0 900
Dr 1.1 0 0
At STD N 00E0FFFF
Ne 0 ""
$EndPAD
$PAD
Po 2.54 0
Sh "3" C 1.65 1.65 0 0 900
Dr 1.1 0 0
At STD N 00E0FFFF
Ne 0 ""
$EndPAD
$PAD
Po 2.54 -2.54
Sh "4" C 1.65 1.65 0 0 900
Dr 1.1 0 0
At STD N 00E0FFFF
Ne 0 ""
$EndPAD
$PAD
Po 5.08 0
Sh "5" C 1.65 1.65 0 0 900
Dr 1.1 0 0
At STD N 00E0FFFF
Ne 0 ""
$EndPAD
$PAD
Po 5.08 -2.54
Sh "6" C 1.65 1.65 0 0 900
Dr 1.1 0 0
At STD N 00E0FFFF
Ne 0 ""
$EndPAD
$EndMODULE SHDR6W64P254_2X3_1540X930X890P
$EndLIBRARY
