(module "SHDR6W64P254_2X3_1540X930X890P" (layer F.Cu)
  (descr "09185067324")
  (tags "Connector")
  (fp_text reference J** (at 0 0) (layer F.SilkS)
    (effects (font (size 1.27 1.27) (thickness 0.254)))
  )
  (fp_text user %R (at 0 0) (layer F.Fab)
    (effects (font (size 1.27 1.27) (thickness 0.254)))
  )
  (fp_text value "SHDR6W64P254_2X3_1540X930X890P" (at 0 0) (layer F.SilkS) hide
    (effects (font (size 1.27 1.27) (thickness 0.254)))
  )
  (fp_line (start -5.41 3.63) (end -5.41 -6.17) (layer F.CrtYd) (width 0.05))
  (fp_line (start -5.41 -6.17) (end 10.49 -6.17) (layer F.CrtYd) (width 0.05))
  (fp_line (start 10.49 -6.17) (end 10.49 3.63) (layer F.CrtYd) (width 0.05))
  (fp_line (start 10.49 3.63) (end -5.41 3.63) (layer F.CrtYd) (width 0.05))
  (fp_line (start -5.16 3.38) (end -5.16 -5.92) (layer F.Fab) (width 0.1))
  (fp_line (start -5.16 -5.92) (end 10.24 -5.92) (layer F.Fab) (width 0.1))
  (fp_line (start 10.24 -5.92) (end 10.24 3.38) (layer F.Fab) (width 0.1))
  (fp_line (start 10.24 3.38) (end -5.16 3.38) (layer F.Fab) (width 0.1))
  (fp_line (start 0 3.38) (end 10.24 3.38) (layer F.SilkS) (width 0.2))
  (fp_line (start 10.24 3.38) (end 10.24 -5.92) (layer F.SilkS) (width 0.2))
  (fp_line (start 10.24 -5.92) (end -5.16 -5.92) (layer F.SilkS) (width 0.2))
  (fp_line (start -5.16 -5.92) (end -5.16 0) (layer F.SilkS) (width 0.2))
  (pad 1 thru_hole rect (at 0 0) (size 1.65 1.65) (drill 1.1) (layers *.Cu *.Mask))
  (pad 2 thru_hole circle (at 0 -2.54) (size 1.65 1.65) (drill 1.1) (layers *.Cu *.Mask))
  (pad 3 thru_hole circle (at 2.54 0) (size 1.65 1.65) (drill 1.1) (layers *.Cu *.Mask))
  (pad 4 thru_hole circle (at 2.54 -2.54) (size 1.65 1.65) (drill 1.1) (layers *.Cu *.Mask))
  (pad 5 thru_hole circle (at 5.08 0) (size 1.65 1.65) (drill 1.1) (layers *.Cu *.Mask))
  (pad 6 thru_hole circle (at 5.08 -2.54) (size 1.65 1.65) (drill 1.1) (layers *.Cu *.Mask))
  (model 09185067324.stp
    (at (xyz 0.099999998498151 0.044094488376708 0.37204723658524))
    (scale (xyz 1 1 1))
    (rotate (xyz 0 0 0))
  )
)
