PCBNEW-LibModule-V1  2024-03-29 00:05:14
# encoding utf-8
Units mm
$INDEX
4609X101102LF
$EndINDEX
$MODULE 4609X101102LF
Po 0 0 0 15 660605ba 00000000 ~~
Li 4609X101102LF
Cd 4609X-101-102LF-1
Kw Resistor Network
Sc 0
At STD
AR 
Op 0 0 0
T0 9.783 -0 1.27 1.27 0 0.254 N V 21 N "RN**"
T1 9.783 -0 1.27 1.27 0 0.254 N I 21 N "4609X101102LF"
DS -1.245 -1.245 21.565 -1.245 0.2 24
DS 21.565 -1.245 21.565 1.245 0.2 24
DS 21.565 1.245 -1.245 1.245 0.2 24
DS -1.245 1.245 -1.245 -1.245 0.2 24
DS -1.245 -1.245 21.565 -1.245 0.1 21
DS 21.565 -1.245 21.565 1.245 0.1 21
DS 21.565 1.245 -1.245 1.245 0.1 21
DS -1.245 1.245 -1.245 -1.245 0.1 21
DS -3 -2.245 22.565 -2.245 0.1 24
DS 22.565 -2.245 22.565 2.245 0.1 24
DS 22.565 2.245 -3 2.245 0.1 24
DS -3 2.245 -3 -2.245 0.1 24
DS -2 -0 -2 -0 0.2 21
DS -1.8 -0 -1.8 -0 0.2 21
DA -1.9 -0 -2.000 -0 -1800 0.2 21
DA -1.9 -0 -1.800 -0 -1800 0.2 21
$PAD
Po 0.000 -0
Sh "1" C 1.365 1.365 0 0 900
Dr 0.758 0 0
At STD N 00E0FFFF
Ne 0 ""
$EndPAD
$PAD
Po 2.540 -0
Sh "2" C 1.365 1.365 0 0 900
Dr 0.758 0 0
At STD N 00E0FFFF
Ne 0 ""
$EndPAD
$PAD
Po 5.080 -0
Sh "3" C 1.365 1.365 0 0 900
Dr 0.758 0 0
At STD N 00E0FFFF
Ne 0 ""
$EndPAD
$PAD
Po 7.620 -0
Sh "4" C 1.365 1.365 0 0 900
Dr 0.758 0 0
At STD N 00E0FFFF
Ne 0 ""
$EndPAD
$PAD
Po 10.160 -0
Sh "5" C 1.365 1.365 0 0 900
Dr 0.758 0 0
At STD N 00E0FFFF
Ne 0 ""
$EndPAD
$PAD
Po 12.700 -0
Sh "6" C 1.365 1.365 0 0 900
Dr 0.758 0 0
At STD N 00E0FFFF
Ne 0 ""
$EndPAD
$PAD
Po 15.240 -0
Sh "7" C 1.365 1.365 0 0 900
Dr 0.758 0 0
At STD N 00E0FFFF
Ne 0 ""
$EndPAD
$PAD
Po 17.780 -0
Sh "8" C 1.365 1.365 0 0 900
Dr 0.758 0 0
At STD N 00E0FFFF
Ne 0 ""
$EndPAD
$PAD
Po 20.320 -0
Sh "9" C 1.365 1.365 0 0 900
Dr 0.758 0 0
At STD N 00E0FFFF
Ne 0 ""
$EndPAD
$EndMODULE 4609X101102LF
$EndLIBRARY
