G04 #@! TF.GenerationSoftware,KiCad,Pcbnew,8.0.1*
G04 #@! TF.CreationDate,2024-03-29T17:30:18+01:00*
G04 #@! TF.ProjectId,AND-gate,414e442d-6761-4746-952e-6b696361645f,rev?*
G04 #@! TF.SameCoordinates,Original*
G04 #@! TF.FileFunction,Copper,L1,Top*
G04 #@! TF.FilePolarity,Positive*
%FSLAX46Y46*%
G04 Gerber Fmt 4.6, Leading zero omitted, Abs format (unit mm)*
G04 Created by KiCad (PCBNEW 8.0.1) date 2024-03-29 17:30:18*
%MOMM*%
%LPD*%
G01*
G04 APERTURE LIST*
G04 #@! TA.AperFunction,ComponentPad*
%ADD10C,1.600000*%
G04 #@! TD*
G04 #@! TA.AperFunction,ComponentPad*
%ADD11O,1.600000X1.600000*%
G04 #@! TD*
G04 #@! TA.AperFunction,ComponentPad*
%ADD12R,1.700000X1.700000*%
G04 #@! TD*
G04 #@! TA.AperFunction,ComponentPad*
%ADD13O,1.700000X1.700000*%
G04 #@! TD*
G04 #@! TA.AperFunction,ComponentPad*
%ADD14R,1.950000X1.950000*%
G04 #@! TD*
G04 #@! TA.AperFunction,ComponentPad*
%ADD15C,1.950000*%
G04 #@! TD*
G04 #@! TA.AperFunction,ComponentPad*
%ADD16C,1.800000*%
G04 #@! TD*
G04 #@! TA.AperFunction,ComponentPad*
%ADD17R,1.800000X1.800000*%
G04 #@! TD*
G04 #@! TA.AperFunction,ComponentPad*
%ADD18R,1.130000X1.130000*%
G04 #@! TD*
G04 #@! TA.AperFunction,ComponentPad*
%ADD19C,1.130000*%
G04 #@! TD*
G04 #@! TA.AperFunction,Conductor*
%ADD20C,0.200000*%
G04 #@! TD*
G04 APERTURE END LIST*
D10*
X146900000Y-84900000D03*
D11*
X146900000Y-95060000D03*
D12*
X109500000Y-81600000D03*
D13*
X109500000Y-84140000D03*
X109500000Y-86680000D03*
X109500000Y-89220000D03*
D10*
X135720000Y-108800000D03*
D11*
X145880000Y-108800000D03*
D14*
X131200000Y-62500000D03*
D15*
X151200000Y-62500000D03*
D16*
X114975000Y-103600000D03*
X114975000Y-106800000D03*
X115000000Y-110000000D03*
D12*
X170500000Y-83000000D03*
X171000000Y-99500000D03*
D16*
X115025000Y-69975000D03*
X115025000Y-73175000D03*
X115050000Y-76375000D03*
D10*
X135720000Y-104000000D03*
D11*
X145880000Y-104000000D03*
D17*
X164000000Y-88960000D03*
D16*
X164000000Y-91500000D03*
D10*
X151600000Y-71500000D03*
X149600000Y-71500000D03*
D18*
X136060000Y-82760000D03*
D19*
X136060000Y-85300000D03*
X136060000Y-87840000D03*
X136060000Y-90380000D03*
X136060000Y-92920000D03*
X136060000Y-95460000D03*
X136060000Y-98000000D03*
X144000000Y-98000000D03*
X144000000Y-95460000D03*
X144000000Y-92920000D03*
X144000000Y-90380000D03*
X144000000Y-87840000D03*
X144000000Y-85300000D03*
X144000000Y-82760000D03*
D20*
X149600000Y-64100000D02*
X149600000Y-71500000D01*
X115025000Y-69975000D02*
X131215000Y-69975000D01*
X144000000Y-77100000D02*
X149600000Y-71500000D01*
X144000000Y-82760000D02*
X144000000Y-77100000D01*
X113825000Y-71175000D02*
X115025000Y-69975000D01*
X113825000Y-102450000D02*
X113825000Y-71175000D01*
X131215000Y-69975000D02*
X144000000Y-82760000D01*
X114975000Y-103600000D02*
X113825000Y-102450000D01*
X151200000Y-62500000D02*
X149600000Y-64100000D01*
X146900000Y-95060000D02*
X160440000Y-95060000D01*
X160440000Y-95060000D02*
X164000000Y-91500000D01*
X146900000Y-84900000D02*
X168600000Y-84900000D01*
X168600000Y-84900000D02*
X170500000Y-83000000D01*
X136060000Y-85715000D02*
X136060000Y-85300000D01*
X114975000Y-106800000D02*
X109500000Y-101325000D01*
X142735000Y-91975000D02*
X142735000Y-105655000D01*
X142735000Y-105655000D02*
X145880000Y-108800000D01*
X109500000Y-101325000D02*
X109500000Y-89220000D01*
X114975000Y-106800000D02*
X136060000Y-85715000D01*
X136060000Y-85300000D02*
X142735000Y-91975000D01*
X115025000Y-73175000D02*
X126475000Y-73175000D01*
X126475000Y-73175000D02*
X136060000Y-82760000D01*
X143135000Y-89835000D02*
X143135000Y-101255000D01*
X143135000Y-101255000D02*
X145880000Y-104000000D01*
X136060000Y-82760000D02*
X143135000Y-89835000D01*
M02*
